"ID","Language_ID","Form","Meaning"
"dahva","mkt","dahva","dawa (fish)"
"xhaapwesep","mkt","xhaapwe sep","noix de coco"
"matha","mkt","mathâ","bird sp"
"xhalat","mkt","xhalat","rough"
"thitan","mkt","thitan","regrowth"
"uli","mkt","uli","plain"
"xhama","mkt","xhama","bois de fer"
"mata","mkt","mata","sing"
"thien","mkt","thien","3"
"jubwen","mkt","jubwen","eel sp"
"faata","mkt","faata","pêcher à la main dans les trous"
"ve","mkt","ve","ray"
"buke","mkt","buke","blossom; yam sp"
"mapaahmapa","mkt","mapaa; hmapa","itch; itch"
"iyesu","mkt","iyesu","Jesus"
"thawiapeaman","mkt","thawi apeaman","bander une plaie"
"fakhabut","mkt","fakhâbut","black pepper"
"thipwan","mkt","thipwan","cracked"
"fidan","mkt","fidan","fish sp"
"jakhi","mkt","jakhî","bourao"
"kari","mkt","kari","jaune"
"nyangan","mkt","nyangan","garden"
"xahoot","mkt","xahoot","duck"
"fadan","mkt","fadan","?"
"fideke","mkt","fideke","wrap"
"khoova","mkt","khôôva","black heron"
"xaya","mkt","xaya","stranger"
"toki","mkt","toki","metal; telephone; corne"
"xhuli","mkt","xhuli","spit leaves (med)"
"vacijuke","mkt","vacijuke","montrer du doigt"
"dataa","mkt","dataa","roof pole"
"sikho","mkt","sikhô","fable"
"hanmaa","mkt","hân maa","low tide"
"titabwi","mkt","titabwi","recevoir, acceuillir"
"thadavi","mkt","thadavi","sculpter; dig out (boat)"
"sapwen","mkt","sapwen","clothing item; clothes"
"caveeke","mkt","caveeke","flee"
"xhum","mkt","xhum","préparer un endroit; labourer; bulldozer"
"ethauli","mkt","ethauli","fan"
"fun","mkt","fun","feuilles sèches, montrant que leur tubercule est mûr; igname mûre"
"mawajii","mkt","mawajii","placename"
"xhopwe","mkt","xhopwe","en plus"
"nyanye","mkt","nya; nye","LOC"
"yataansin","mkt","yataan sin","paume de la main"
"xhwaeo","mkt","xhwaeo","taro"
"xateekesi","mkt","xateeke si","boxer"
"kapagat","mkt","kapagat","mendier du regard"
"nyamaan","mkt","nyamaan","taste"
"dabo","mkt","dabo","pond"
"thin","mkt","thin","breasts"
"thaxhwae","mkt","thaxhwae","try someone"
"sukin","mkt","sukin","price"
"thavekethaveeke","mkt","thaveke; thaveeke","spread; unfold"
"fiike","mkt","fiike","pod; coudre du filet"
"thavwa","mkt","thavwa","mushroom; lichen"
"daadang","mkt","daadang","arbre allume-feu"
"tit","mkt","tit","suckle"
"mwancotmwanchootmwancoot","mkt","mwan côt; mwan chôôt; mwan côôt","shop"
"thabo","mkt","thabo","extinguish by hitting"
"saaguu","mkt","saaguu","support"
"saahmacuut","mkt","saahma cuut","stand up"
"bwaun","mkt","bwaun","bushel"
"xacusesaat","mkt","xacusesaat","tracker"
"muunhmu","mkt","muun; hmu","blossom"
"men","mkt","men","raw"
"ka","mkt","ka","CONJ; Q"
"thopu","mkt","thopu","mildewy spot; moisi"
"vwasoon","mkt","vwasoon","impossible"
"nyaut","mkt","nyaut","plus bas que"
"diidi","mkt","dii; di","navette de filet"
"saman","mkt","saman","gift"
"nyamwen","mkt","nyamwen","roseau à corbeille"
"vewetang","mkt","vewetang","faire les cent pas"
"thapen","mkt","thapen","roseau"
"cika","mkt","cika","NEG EXIST; vide"
"vwaicu","mkt","vwa icu","make for sale; sell"
"bwaten","mkt","bwaten","bundle"
"ha","mkt","ha","EXPL"
"hmwaang","mkt","hmwaang","nightmare"
"buli","mkt","buli","enlever une couverture"
"go","mkt","go","then"
"jihlowe","mkt","jihlowe","douko"
"nuuke","mkt","nuuke","enfoncer qqc"
"wemanila","mkt","wemanila","cheville"
"thuupthuop","mkt","thuup; thuop","se baigner"
"thibwan","mkt","thibwan","sa queue"
"ewaam","mkt","ewââm","prepare"
"sibe","mkt","sibe","repudiate"
"kokosi","mkt","kokosi","sorte d'igname (rond ou long, blanc)"
"pwanpwa","mkt","pwan; pwa","on"
"nyau","mkt","nyau","bad"
"xheela","mkt","xheela","climb"
"ethana","mkt","ethana","walk around"
"apetahmangke","mkt","ape tahmangke","knowledge; intelligence"
"caavo","mkt","caavo","menstruation"
"site","mkt","site","sibling"
"nyunyu","mkt","nyu; nyu","poisson"
"xhasaat","mkt","xhasaat","jump; rear (horse)"
"nibe","mkt","nibe","peel"
"me","mkt","me","all"
"fiji","mkt","fiji","sorte d'igname (long, rouge)"
"thathap","mkt","thathap","paralyser, bloquer"
"xasee","mkt","xasee","pétrel"
"tiidi","mkt","tiidi","essuyer"
"thalop","mkt","thalop","sautiller prêt à se battre"
"vin","mkt","vin","receptacle vidé"
"paatelo","mkt","paatelo","pantalon"
"cina","mkt","cina","continuer; push"
"tiiuk","mkt","tiiuk","piquant (alcool sur plaie)"
"yatheen","mkt","yathêên","marcher pressé"
"thimicimithimii","mkt","thimi; cimi; thimii","peindre; enduire"
"bwatabwa","mkt","bwatabwa","bénitier rouleur"
"hololoo","mkt","hololoo","cradle"
"mamiapo","mkt","mamiapo","papaya tree"
"fwaathan","mkt","fwaathan","fessier"
"hmeewan","mkt","hmee wan; hmweewan","sand"
"nyecahni","mkt","nyecahni; nyeca","ici dedans; d'ici; inside"
"apemooapemookan","mkt","ape moo; apemookan","endroit habité"
"xhaohmu","mkt","xhaohmu","old; ancestor"
"bwiin","mkt","bwiin","remède"
"xalanxalam","mkt","xalan; xalam","en-dessous; le dessous"
"nyawannyawan","mkt","nyawan; nyawân","esprit"
"fici","mkt","fici","oeuf; rondeur"
"boje","mkt","boje","sourd"
"nyin","mkt","nyin","mouche"
"mwago","mkt","mwago","mango"
"hnyajo","mkt","hnyajo","soft"
"sanyake","mkt","sanyake","débrousser (champ d'igname)"
"sapwe","mkt","sapwe","do suddenly"
"vethuang","mkt","vethuang","plaisanter"
"balan","mkt","balan","finally"
"diam","mkt","diam","huître"
"fatifaati","mkt","fati; faati","parole, discours; langue"
"athipwaa","mkt","athipwaa","malheureusement"
"xhato","mkt","xhato","coral block"
"bomakau","mkt","bomakau","cow"
"ma","mkt","ma","COM; quand"
"vithe","mkt","vithe","meet"
"jahlo","mkt","jahlo","rooster's comb"
"bita","mkt","bita","turn completely"
"hnut","mkt","hnut","go downstream; go north"
"thapiiibwan","mkt","thapii i bwan","tuer (casser la tête)"
"fuduun","mkt","fuduun","hair"
"ga","mkt","-ga","1PL INCL POSS"
"vwataeke","mkt","vwa taeke","do badly"
"cuvathanke","mkt","cuvathanke","stand around"
"jinu","mkt","jinu","spiritual power"
"jahoot","mkt","jahoot","river; valley"
"kojake","mkt","kojake","mesurer par brasse"
"buco","mkt","buco","full"
"je","mkt","-je","1PL INCL"
"vucithia","mkt","vuci thia","female side of plantation"
"thalo","mkt","thalo","2"
"jaeo","mkt","jaeo","arbre de bord de mer antimoustique, la fumée des feuilles vertes soigne les blessures"
"thidaang","mkt","thidââng","fougère pour brochettes, monnaie kanak"
"sootkoon","mkt","soot koon","touch lightly"
"mudep","mkt","mudep","dugong"
"suhme","mkt","suhme","spit"
"ween","mkt","ween","métis; descendance"
"manyo","mkt","manyo","cassava"
"guco","mkt","guco","petit criquet"
"evadaanke","mkt","evadaanke","forgive"
"xhuni","mkt","xhuni","gâchette, lance-sagaie"
"joge","mkt","joge","conduire, guider"
"ethoaethoa","mkt","ethôâ; ethôa","command"
"yabwe","mkt","yabwe","sujet (d'un chef)"
"faaifai","mkt","faai; fai","cook; cook with fire"
"fwadat","mkt","fwadat","lively"
"thafwan","mkt","thafwan","carry on back"
"tuu","mkt","tuu","sortir qqc de qq part"
"palaxhwatin","mkt","pala xhwatin","speak quietly"
"sithun","mkt","sithun","forest coconut"
"vuto","mkt","vuto","bracelet; pearl money"
"moomoo","mkt","moo; moo","stay"
"tiibo","mkt","tiibo","faire des bruits de baiser"
"xhaapwein","mkt","xhaapwe in","papaya"
"jiva","mkt","jiva","ramasser des poissons empoisonnés"
"hai","mkt","hai","DISJ"
"guo","mkt","guo","bud"
"saahma","mkt","saahma","stand up"
"apeta","mkt","ape ta","pass"
"vaset","mkt","vaset","swamp clam"
"been","mkt","been","friend"
"vidapxhoogo","mkt","vidap xhoogo","tertre abandonné; abandoned tribe"
"temineen","mkt","temineen","planer (vol)"
"cuk","mkt","cuk","tubercules pas encore prêts à être retirés"
"maap","mkt","maap","lunette (bird)"
"kai","mkt","kai","who"
"xhodep","mkt","xhodep","be starving"
"meebam","mkt","meebam","sleep"
"kafe","mkt","kafe","coffee"
"vaang","mkt","vaang","inconnu"
"dalep","mkt","dalep","érythrine peuplier"
"tha","mkt","thâ","feces"
"sat","mkt","sat","chiton"
"hmeekhne","mkt","hmeek; hne","tree sp"
"apefaimae","mkt","ape fai mae","hearth"
"hmahmang","mkt","hmahmang","floraison de corail"
"fili","mkt","fili","braid (cheveux); faire de la grosse corde en torsadant"
"thabwane","mkt","thabwane","fendre"
"thaaba","mkt","thaaba","move through bush"
"thienvwasiteke","mkt","thien vwasiteke","thursday"
"fasiit","mkt","fasiit","friday"
"xahnutxahnuut","mkt","xahnut; xahnuut","vers l'aval, le Nord; vers le nord"
"khet","mkt","khêt","lymph node"
"vaa","mkt","vaa","tante"
"hmwi","mkt","hmwi","cordilyne"
"tagop","mkt","tagop","circumcision"
"lu","mkt","lu=","3DU; 3DU.POSS"
"fwa","mkt","fwa","mettre (manou)"
"xaabate","mkt","xaabate","les deux frères"
"jaxhut","mkt","jaxhut","story"
"xhuaxhuan","mkt","xhua; xhuan-","nourriture"
"nyasipoke","mkt","nyasipoke","gather"
"fesin","mkt","fesin","prendre à qqn, acheter à qqn"
"bet","mkt","bet","worm"
"tuamwa","mkt","tuamwa","detach"
"makhida","mkt","makhîda","mudskipper"
"cubite","mkt","cubite","tamp; be squeezed by crowd"
"wanke","mkt","wanke","change"
"picu","mkt","picu","narrow"
"cubi","mkt","cubi","break (bread)"
"wagowagohwago","mkt","wâgo; wago; hwâgo","persevere; demander en insistant; se forcer"
"oda","mkt","oda","surprise"
"xhopwenxhopwe","mkt","xhopwen; xhopwe","big"
"vunuun","mkt","vunuun","finish"
"kuyut","mkt","kuyut","kinky-haired"
"sixhona","mkt","sixhona","improve"
"jimin","mkt","jimin","la nuit avant aujourd'hui, après s'être endormi"
"thauleke","mkt","thauleke","pour out"
"bate","mkt","bate","bout, extrémité"
"naami","mkt","naami","pet; massage"
"xhamuum","mkt","xhamuum","être éberlué, impressionné par la taille"
"ecase","mkt","ecase","quelqu'un"
"holeekehole","mkt","holeeke; hole","thank; accept"
"itoke","mkt","itoke","froisser, effriter"
"thiie","mkt","thiie","Cèmuhî"
"thugo","mkt","thugo","herminette"
"we","mkt","we","air"
"ehni","mkt","ehni","ceci"
"sap","mkt","sap","ramper (liane)"
"maani","mkt","maani","after-fire brush"
"hato","mkt","hato","tout seul"
"xhwatla","mkt","xhwatla","thunder"
"xhothap","mkt","xhothap","cerf (arch.); animal"
"balo","mkt","balô","ballon"
"gere","mkt","gere","fat; become fat; sorte d'igname (long, blanc)"
"balan1","mkt","balan","since"
"fwalang","mkt","fwalang","pastèque"
"pu","mkt","pu","on the ground"
"nengela","mkt","nengela","sorte d'igname (long, rouge)"
"masoo","mkt","masoo","roussette"
"nigaa","mkt","nigaa","grosse crevette de rivière"
"feanakefeanakefeenakefeanakefainake","mkt","feanake ; feanake; feenake; fêanake; fainake","montrer"
"gunfatiin","mkt","gun fatiin","deep voice"
"hmain","mkt","hmain","many"
"weke","mkt","weke","rage"
"mwaunmau","mkt","mwaun; mâû","fish sp"
"saawet","mkt","saawet","nom de coquillage"
"jaathoojaatho","mkt","jaathoo; jaatho","shell horn; triton shell"
"siteke","mkt","siteke","sacré, défendu"
"a","mkt","a=","3SG"
"teeriko","mkt","teeriko","t-shirt"
"thana","mkt","thana","wander"
"viin","mkt","viin","shell; empty container"
"de","mkt","de","sagaie de pêche à trois piques"
"xafexhwaawe","mkt","xafe xhwaawe","midwife"
"tawi","mkt","tawi","rip off"
"thaa","mkt","thaa","peel coconut"
"ubinyu","mkt","ubi nyu","désécailler un poisson"
"saxhwe","mkt","saxhwe","refuse to do"
"tidi","mkt","tidi","coiffure en sparterie dure"
"mwani","mkt","mwani","argent"
"ehninim","mkt","ehninim","repentance"
"apecuut","mkt","ape cuut","échafaudage"
"majit","mkt","majit","lie down; rest"
"vwini","mkt","vwini","barrette pour fixer la paille"
"tipu","mkt","tipu","immersion"
"thapiike","mkt","thapiike","refuser de donner"
"puthap","mkt","puthap","merle noir"
"fanye","mkt","fanye","feed"
"vajilu","mkt","vajilu","10"
"koko","mkt","-ko; -ko","2SG.OBJ"
"hmapethoatit","mkt","hmapethoatit","cloud"
"maapwanmaa","mkt","maa; pwan maa","coral; reef"
"ya","mkt","ya","ah, ça y est"
"juuxamavu","mkt","juu xamavu","sensitive (plante)"
"ebeen","mkt","ebeen","brotherhood"
"hnihnim","mkt","hnihnim","repent"
"fatamaanke","mkt","fatamaanke","percer avec les dents"
"eja","mkt","eja","être de dos"
"xaako","mkt","xaako","attaquer (humain)"
"tomo","mkt","tomo","sorte d'igname (long, blanc, bleu)"
"naamuu","mkt","naamuu","nom de coutume d'enterrement"
"geehna","mkt","geehna","chou de chine"
"dingamwec","mkt","dingamwec","igname sauvage"
"bi","mkt","bi","mulet noir de rivière"
"caaji","mkt","caaji","bend"
"halelewa","mkt","halelewa","green cicada"
"fasiisuke","mkt","fasiisuke","encourage"
"thaxhipwi","mkt","thaxhipwi","écorché"
"bwahap","mkt","bwahap","base de la palme de cocotier"
"culiip","mkt","culiip","s'agiter, bouger; trépigner (enfant)"
"thapanke","mkt","thapanke","serrer près du corps"
"dipin","mkt","dipin","enveloppe; cover"
"sahmang","mkt","sahmang","habit"
"lait","mkt","lait","rice"
"caacaa","mkt","caacaa","dad"
"phwaiphwai","mkt","phwaî; phwâi","Fwaî"
"xacalu","mkt","xacalu","ceremonial role"
"thatheeke","mkt","thatheeke","tuer (lancer avec force); blesser"
"o","mkt","o","times"
"sili","mkt","sili","percer"
"thea","mkt","thêa","nom de fils aîné"
"hmanghmanghmanghmeehmangsaae","mkt","hmang; hmang; hmang hmee; hmang saae","let"
"hike","mkt","hike","nom de fille aînée"
"thacina","mkt","thacina","buter dans qqc; se blesser par foulure, être foulé"
"thilek","mkt","thilek","nom d'oiseau"
"hao","mkt","hao","grand-dad"
"goakan","mkt","goakan","moment; place"
"hmanan","mkt","hmanan","hungry"
"tapa","mkt","tapa","tobacco"
"ujep","mkt","ujep","sugar cane"
"jeeda","mkt","jeeda","badamier de bord de mer"
"buuke","mkt","buuke","destroy"
"xhwani","mkt","xhwani","hold shut tight"
"fwado","mkt","fwado","édenté; brèche-dent"
"hlohloi","mkt","hlohloi","bougna"
"jauva","mkt","jauva","regret"
"mwakau","mkt","mwakau","turban"
"madin","mkt","madin","chenille"
"yau","mkt","yau","perroquet (poisson)"
"fubun","mkt","fubun","tas"
"abe","mkt","abe=","1.PL.EXCL"
"en","mkt","en","première fois"
"tadaca","mkt","ta; da; ca","move up; light up"
"xhavac","mkt","xhavac","roche pour faire des pierres de fronde"
"kaubii","mkt","kaubii","eat crunchy fruit"
"hmaidu","mkt","hmaidu","bancoulier"
"taage","mkt","taage","thatch roof"
"sep","mkt","sep","coconut"
"apetuvi","mkt","ape tuvi","puits"
"phwalaa","mkt","phwalaa","bread"
"hleenke","mkt","hleenke","être indifférent, s'en ficher"
"imwanoomwanomwaanoimwano","mkt","imwanoo; mwano; mwaano; imwano","manou; cloth"
"sate","mkt","sate","different"
"xahnuuda","mkt","xahnuuda","upstream"
"wekavwe","mkt","-we; -kavwe","2PL.OBJ"
"puhnuumvuhnuum","mkt","puhnuum; vuhnuum","quiet"
"faimae","mkt","faimae","faire du feu"
"xhaa","mkt","xhaa","do a part of"
"nyamic","mkt","nyamic","strombe"
"janap","mkt","janap","market"
"photha","mkt","photha","sexual taboo"
"i","mkt","-i","TR"
"sitha","mkt","sithâ","pus; acné"
"xhwahloop","mkt","xhwahloop","house part"
"hnyaike","mkt","hnyaike","tight"
"xadan","mkt","xadan","shard"
"bwahiida","mkt","bwahiida","coquillage"
"haphunuke","mkt","haphûnuke","démêler; jeu de ficelle; jouer, faire sans connaître"
"mapekemapike","mkt","mapeke; mapike","bright"
"hawahawanhawan","mkt","*hâwa; hawân; hâwân","possession; effect"
"fwadaang","mkt","fwadaang","clearing; la trou d'impact de ma sagaie"
"dongan","mkt","dongan","orange"
"xavap","mkt","xavap","hunter"
"ficipwitan","mkt","fici pwitan","ses testicules"
"vathan","mkt","vathân","hinder"
"sipi","mkt","sipi","touch to draw attention"
"dipi","mkt","dipi","wrap"
"xhani","mkt","xhani","choose"
"saiyo","mkt","saiyo","spider"
"aen","mkt","-aen","DIST"
"pwaguunmwa","mkt","pwaguun mwa","behind (building)"
"sonoke","mkt","sonoke","carry on shoulder"
"fuman","mkt","fuman","result"
"ut","mkt","ut","braids"
"budi","mkt","budi","chafing"
"jaayu","mkt","jaayu","kaori tree"
"xeebeen","mkt","xeebeen","brother in-law"
"fejatteja","mkt","fejat; teja","faux tamanou"
"thipiake","mkt","thîpîake","turn over clothes"
"xaabetha","mkt","xaabetha","sister pair"
"sisipo","mkt","sisipo","together"
"bwaahngan","mkt","bwaa(h)ngan","chest"
"so","mkt","so","thatch fixing pole"
"wiiwa","mkt","wiiwa","fish sp"
"thabovi","mkt","thabovi","drape over"
"juju","mkt","-ju; ju","1DU.INCL.POSS"
"jakoon","mkt","jakoon","measure"
"seedaam","mkt","sêêdaam","gendarme"
"pwalago","mkt","pwalago","rond, sphère"
"hut","mkt","hut","move down"
"nenaan","mkt","nenaan","gums"
"caeke","mkt","caeke","hope"
"xhavo","mkt","xhavo","ver de bancoul"
"hmweeng","mkt","hmweeng","float"
"halaan","mkt","halaan","shine"
"vetupi","mkt","vetupi","spoon"
"nyan","mkt","nyan","interior"
"yoong","mkt","yoong","beach crab"
"nyamaanen","mkt","nyamaan; en","eye; yam eye"
"geen","mkt","geen","song theme; voice"
"halan","mkt","halan","sexe de la femme (arch.)"
"hnyaut","mkt","hnyaut","just below"
"vitaeke","mkt","vitaeke","gossip"
"mati","mkt","mati","recently"
"wata","mkt","wata","mining rod"
"thela","mkt","thela","fouiller pour extraire"
"cafeeke","mkt","cafeeke","dribbler le ballon, se sauver en prenant le ballon"
"khii","mkt","khîî","swamp hen"
"apetaadua","mkt","ape taadua","obstacle"
"seejanit","mkt","seejanit","Tiendanite"
"thage","mkt","thage","baisser le feu, retirer les braises"
"tueet","mkt","tueet","arbre de bord de mer à fruit en forme de toit de l'hôtel Tiéti"
"sesee","mkt","se; see","same"
"thuat","mkt","thuat","sortir"
"ciecien","mkt","cie; cien","absent"
"sapen","mkt","sapen","shelter; sleeping mat"
"seedaam1","mkt","sêêdaam","rélégué (poisson)"
"hnep","mkt","hnep","sail"
"xatoon","mkt","xatoon","spouse"
"thaxaahni","mkt","thaxaahni","look forward to"
"eholekenyasimlifatigovi","mkt","eholeke nyasim li fati go vi","merci pour ce que tu as dit"
"yavi","mkt","yavi","ramasser pour prendre"
"mani","mkt","mani","bird"
"thamanxawethamanxawee","mkt","thaman xawe; thaman xawee","mère et enfant; pléiades"
"sixhwe","mkt","sixhwe","imitate"
"thoolepije","mkt","thoole (pije)","maudir, lancer des sorts"
"go1","mkt","go=","2SG"
"thibo","mkt","thibo","esprit de la forêt (femme aux gros seins)"
"hneenghneng","mkt","hneeng; hneng","law; ruler"
"bwat","mkt","bwat","club"
"mwamwaa","mkt","mwa; mwaa","house; container"
"geletho","mkt","gelethô","plant sp"
"dapwen","mkt","dapwen","coal; ember"
"teep","mkt","teep","flow; leak"
"xafeyat","mkt","xafeyat","personne ayant pris le nom d'une autre"
"etitoot","mkt","etitoot ","s'accoupler"
"veena","mkt","veena","anguille noire"
"bwanxhun","mkt","bwan xhun","oreiller"
"japutoku","mkt","japu toku","rooftop sculpture"
"xhiiut","mkt","xhiiut","chaleur"
"mixhwaloom","mkt","mixhwaloom","couché sur le ventre"
"sesaat","mkt","sesaat","lentement"
"esoom","mkt","esoom","nageoire"
"daavan","mkt","daavan","salive; mucus d'anguille"
"gi","mkt","gi","axe"
"tau","mkt","tau","impact; land"
"xasibu","mkt","xasibu","reserved"
"hamwame","mkt","hamwame","come back"
"xata","mkt","xatâ","support de la marmite (deux fers)"
"seen","mkt","seen","limite, frontière; jusque"
"fwe","mkt","fwe","faux figuier"
"saap","mkt","saap","en retard"
"thaut","mkt","thaut","mulet"
"lilas","mkt","lilas","lilas (arbre)"
"xiin","mkt","xiin","liver"
"ethalokan","mkt","ethalokan","deuxième"
"wanyima","mkt","wanyima","nourrir une rancoeur"
"thamwi","mkt","thâmwi","choisir; trier"
"ewanke","mkt","ewanke","échanger"
"fa","mkt","fa","CAUS"
"xale","mkt","xale","apercevoir"
"wailu","mkt","wailu","grass sp"
"hnataeo","mkt","hnataeo","tree sp"
"innyamaan","mkt","in nyamaan","paupière"
"hahaat","mkt","hahaat","nono"
"xamakeet","mkt","xamakeet","difficile, qui mange que ce qu'il veut"
"kawo","mkt","kawo","cagou"
"duphop","mkt","duphôp ","fish sp"
"wakhan","mkt","wakhan","bark"
"a1","mkt","-a","3SG.OBJ"
"kawat","mkt","kawat","fibre retirée de la base de la palme de cocotier"
"cicaat","mkt","cicaat","tendu"
"hnyaana","mkt","hnyaana","much"
"saboonsabon","mkt","saboon; sabon","massif de culture (Leenhardt)"
"yajookeyajoke","mkt","yajooke; yajoke","faire pareil; être à la hauteur"
"thapoop","mkt","thapoop","pandanus et son fruit"
"xhoogo","mkt","xhoogo","home"
"tali","mkt","tali","unroll; feuilleter"
"delan","mkt","delan","bruit de tôle secouée"
"hancuut","mkt","hân cuut","go to toilet"
"mae","mkt","mae","fire"
"jala","mkt","jala","jouer"
"ciina","mkt","ciina","viser"
"xapalaxapala","mkt","xapala; xa pala","bavard; chatterbox"
"beng","mkt","beng","à-pic, pente raide; cascade"
"xat","mkt","xat","orange mushroom"
"yua","mkt","yua","scratch skin"
"pola","mkt","pola","grande corbeille en feuilles de cocotier"
"epulaa","mkt","epulaa","tease"
"cikanyamaan","mkt","cika nyamaan","aveugle"
"xahnaake","mkt","xahnaake","estimer"
"wawi","mkt","wawi","pierre chromée"
"joakan","mkt","joakan","gros"
"wi","mkt","wi","champ (non cultivé)"
"hmwani","mkt","hmwani","freshwater shrimp sp"
"xheen","mkt","xheen","noise"
"cipii","mkt","cipii","PROH"
"pwelic","mkt","pwelic","police"
"mievaaya","mkt","mievaaya","s'agiter en dormant"
"yahan","mkt","yahân","partir"
"thake","mkt","thake","throw; souffler (vent)"
"cuut","mkt","cuut","clan"
"xhalan","mkt","xhalan","split leaf"
"gat","mkt","gat","False; lie; arrière-"
"bwasala","mkt","bwasala","mangrove crab"
"senjaahoot","mkt","sen jaahoot","banc de rivière "
"mwanyamaanmwanyamamwanyamaan","mkt","mwa nyamaan; mwanyama; mwanyamaan","glasses"
"thitivaake","mkt","thitivaake","hide sth"
"fatadake","mkt","fatadake","étonner qqn"
"picap","mkt","picap","moule"
"thadala","mkt","thadala","éparpiller (des fruits sur une dalle pour sécher, des caillous pour couvrir un sol)"
"gee","mkt","gee","grand-mère"
"n","mkt","-n","3SG.POSS"
"xhaavwa","mkt","xhaavwa","wait"
"xhwatingeennyoo","mkt","*xhwatin geen nyoo-","high voice"
"hmwet","mkt","hmwet","rest"
"ciba","mkt","ciba","refuser de prendre"
"fwajefwanje","mkt","fwaje; fwanje","noeud coulant"
"mubwen","mkt","mubwen","de bonne heure, tôt"
"bwana","mkt","bwana","ambrevanne, pois angolais"
"jatijati","mkt","jati; jati","sea; salt"
"fwadai","mkt","fwadai","chercher qqc"
"fuut","mkt","fuut","siffler avec les doigts"
"venye","mkt","venye","envoyer qqn pour faire qqc"
"xhweduun","mkt","xhwe duun","humpback"
"bwixhuupbwihup","mkt","bwixhuup; bwihup","roussette noire"
"kaen","mkt","kaen","place name"
"hmagat","mkt","hmagat","crevette; sugar cane sp; crevette (plante)"
"le","mkt","le=","3PL"
"yeenyee","mkt","yeen; yee","island"
"deeden","mkt","deeden","mouche bleue"
"bapalake","mkt","bapalake","veiller sur qqn"
"palaxhopwen","mkt","pala xhopwen","parler fort"
"thaang","mkt","thaang","fish sp"
"siibwi","mkt","siibwi","rat; sugar cane sp"
"tiive","mkt","tiive","couper au couteau; couper en morceaux, décortiquer"
"vacinyivwan","mkt","vaci nyivwan","dent (humaine); bec"
"piuk","mkt","piuk","tête de clou; étincelle; étoile"
"jelan","mkt","jelan","côté"
"ra","mkt","ra-; xa-","soon; HAB"
"jehme","mkt","jehme","croton"
"xhopwenop","mkt","xhopwen op","high tide"
"yavec","mkt","yavec","broken-up clouds"
"babec","mkt","babec","cactus"
"bwaden","mkt","bwaden","deuil (arch.)"
"thapokekan","mkt","thapokekan","commencement"
"thewan","mkt","thêwan","transpirer"
"hmek","mkt","hmek","vine sp"
"dabwau","mkt","dabwau","impotent, invalide"
"thiluk","mkt","thiluk","fish sp"
"i1","mkt","i-","ART"
"bofwan","mkt","bofwan","exit"
"walaabe","mkt","walaabe","left"
"cuutmagohan","mkt","cuut ma go han","tu te lèves pour aller"
"jeletho","mkt","jelethô","sorte de salade"
"vat","mkt","vat","flower sp"
"thaket","mkt","thaket","sugar cane sp; beach flower"
"paa","mkt","paa","ASP already"
"wati","mkt","wati","courser"
"kaakaa","mkt","-kaa; kaa","1PL INCL OBJ"
"mociit","mkt","mociit","taboo place"
"vwawiin","mkt","vwa wîîn","fort; effet de médicament"
"tipwaxawe","mkt","tipwa xawe","accoucher"
"hmae","mkt","hmae","sparterie"
"fiing","mkt","fiing","noir, obscur"
"nigaa1","mkt","nigaa","crevette de creek"
"gaanmeekan","mkt","gaan meekan","all together"
"bwihnyo","mkt","bwihnyo","clam sp"
"titoot","mkt","titoot","s'accrocher"
"favavwasiteke","mkt","fava vwasiteke","wednesday"
"gau","mkt","gau=","2DU; à vous deux"
"xhula","mkt","*xhula-","point"
"thau","mkt","thau","famille, clan, terre, toutes les richesses d'un homme, racines dans la terre"
"vitin","mkt","vitin","seed"
"hamo","mkt","hamo","older sister; great-grand-mother"
"cabeen","mkt","cabeen","others"
"unyoonunyoon","mkt","unyoon; unyôôn","col"
"sii","mkt","sii","drive away"
"sima","mkt","sima","ciment; structure en ciment"
"hmet","mkt","hmet","rassasié"
"thawatap","mkt","thawatap","miss"
"haniyavo","mkt","hân i yavo","to fish line"
"xhwavi","mkt","xhwavi","break off fruit; fouiller avec un bâton"
"sae","mkt","sae","banane mûre"
"bwabalanxaleke","mkt","bwa balan xaleke","discover"
"xhwi","mkt","xhwi","bite"
"fufujo","mkt","fufujo","foam; sea foam"
"mapu","mkt","mapu","mouth drum"
"that","mkt","that","ananas"
"efitifiti","mkt","efiti; fiti","ceinture"
"puput","mkt","puput","behind"
"mathila","mkt","mathila","lève-queue"
"tit1","mkt","tit","allaiter"
"woom","mkt","woom","bridge"
"jili","mkt","jili","clouer qqc, construire en clouant; sculpter"
"thaap","mkt","thaap","fishing dam"
"thuun","mkt","thuun","clan"
"hmwet1","mkt","hmwet","tired"
"taeke","mkt","taeke","do badly"
"phweedi","mkt","phwêêdi","youngest child"
"bwajadoon","mkt","bwa jadoon","faire des incantations; manger le premier bout d'igname de l'année"
"vuthi","mkt","vuthî","harvest taro"
"hmu","mkt","hmu","ant"
"butei","mkt","butei","bottle"
"koopulo","mkt","koopulo","albino"
"fe","mkt","fe","take"
"jo","mkt","jo","chicken"
"paci","mkt","paci","chauffer"
"vacihanda","mkt","vacihanda","barbe"
"xhwayuk","mkt","xhwayuk","siffler"
"daan","mkt","dâân","piquant, épine"
"kepi","mkt","kepi","prendre avec le doigt (beurre, pomade)"
"suagit","mkt","suagit","maigre (nourriture)"
"xavabun","mkt","xavabun","grandparent and grandchild"
"saike","mkt","saike","light up; pêcher à la torche"
"fadaa","mkt","fadaa","surpass"
"bu","mkt","-bu","1DU EXCL OBJ"
"xiti","mkt","xiti","balayer; ratisser"
"tha1","mkt","tha","fortement"
"te","mkt","te-","walking"
"bomaan","mkt","bomaan","smell"
"fasiweke","mkt","fasiweke","retourner"
"nanoom","mkt","nanoom","fruitfly"
"tuvi","mkt","tuvi","puiser dans un liquide"
"nyada","mkt","nyada","plus haut que"
"nyaut1","mkt","nyaut","envoyer en-bas"
"fate","mkt","fate","sharing"
"xhuumwa","mkt","xhuumwa","court"
"mween","mkt","mween","habit"
"sau","mkt","*sau-","dress"
"li","mkt","li; ni","ART.PL"
"silaa","mkt","silaa","élever des bêtes; domestiqué, apprivoisé"
"jevwan","mkt","jevwan","nombre"
"vije","mkt","vije","piège à oiseau"
"dan","mkt","dan","partie éclairée, débroussée"
"vup","mkt","vup","cough"
"fwiiu","mkt","fwiiu","dry, itchy skin"
"uvu","mkt","uvu","igname"
"wejaati","mkt","we jaati","eau salée"
"jiletho","mkt","jiletho","blettes"
"huthan","mkt","hut hân","go down to walk"
"saleet","mkt","saleet","fish sp"
"xayu","mkt","xayu","male"
"vwasiteke","mkt","vwa siteke","prier; prière; dimanche"
"tipu1","mkt","tipu","plonger"
"dedoon","mkt","dedoon","shadow"
"muja","mkt","muja","vomit"
"yeenmwa","mkt","yeen mwa","roof beams"
"mweedo","mkt","mweedo","crabe violoniste"
"ekoinan","mkt","ekoinan","last"
"xafetha","mkt","xa fe thâ","sorcerer"
"kapwa","mkt","kapwa","tôle"
"fovwat","mkt","fovwat","blanc"
"fethem","mkt","fethem","white spots (skin disease)"
"takeeke","mkt","takeeke","relax"
"mwaxhit","mkt","mwaxhit","qui te donne la chair de poule, qui dégoûte par son aspect"
"xahmaen","mkt","xahmaen","tomorrow"
"mwaen","mkt","mwaen","rigoler"
"cupi","mkt","cupi","crush"
"xhajake","mkt","xhajake","eat starchy"
"hnuugen","mkt","hnuugen","big clam"
"juuhoot","mkt","juu hoot","plus loin"
"thifuu","mkt","thifuu","soak"
"haago","mkt","haago","music"
"capa","mkt","capa","plat; lisse"
"manet","mkt","manet","fast; starve"
"hyevic","mkt","hyevic","white mangrove tree"
"ngeein","mkt","ngeein","rattle"
"diibang","mkt","diibang","hibiscus"
"joage","mkt","joage","drain; ditch"
"fwi","mkt","fwi","lift partially; pinch"
"sabin","mkt","sabin","déchets d'humains"
"yatanga","mkt","yatanga","paroi de la maison, tout ce qui sépare intérieur et extérieur"
"magasi","mkt","magasî","sorte d'igname (long, blanc, rouge)"
"mumwauke","mkt","mumwauke","faire la bise"
"xawelo","mkt","xawelo","saoûl"
"halek","mkt","halek","fish"
"thatim","mkt","thatim","se débattre, lutter pour se libérer"
"tabo","mkt","tabo","sit"
"fwadeny","mkt","fwadeny","voie lactée"
"hnyada","mkt","hnyada","send back"
"haxhi","mkt","haxhi","forgiveness; forgive"
"nuut","mkt","nuut","se rétracter (tête de tortue, eau)"
"thathabo","mkt","thathabo","edible mushroom"
"yataanxhan","mkt","yataan xhan","plante du pied"
"tipwa","mkt","tipwa","fall"
"kadep","mkt","kadep","calm"
"hava","mkt","hava","nom de fleur"
"thaake","mkt","thaake","drag"
"saxhuti","mkt","saxhuti","raconter; longer, suivre le cours de"
"debaahna","mkt","debaahna","bât du cheval"
"vatipwe","mkt","vatipwe","relâcher; remettre"
"kahlapa","mkt","kahlapa","plat, sans nivellements"
"tabwetaabwe","mkt","tabwe; taabwe","pick berry; pick leaves"
"vani","mkt","vani","irriguer en canalisant"
"daa","mkt","daa","our turn"
"theeke","mkt","theeke","blow on sth"
"thuaanthoa","mkt","thûâân; thôa","manners"
"ecusamwa","mkt","ecusamwa","être dos à dos"
"hmwaang1","mkt","hmwaang","parler dans son sommeil; sleepwalker"
"thanop","mkt","than op","méduse"
"ban","mkt","ban","not yet"
"thaa1","mkt","thaa","tie"
"yatho","mkt","yathô","pressé, stressé"
"mapu1","mkt","mapu","wasp"
"cupwanxhanjo","mkt","cupwanxhanjo","debout une jambe repliée"
"puloon","mkt","puloon","hareng"
"maucephmaucep","mkt","maucep; hmaucep","noni  ; red paint"
"le1","mkt","-le","3PL.POSS"
"cami","mkt","cami","dove"
"homaan","mkt","homaan","open mouth"
"kumwa","mkt","kumwa","big hermit crab"
"bifidu","mkt","bifidu","twin"
"yaavu","mkt","yaavu","être fou de joie, s'écrier de joie"
"kahupwen","mkt","kahupwen","bénitier bleu"
"tihlip","mkt","tihlip","couler"
"sasahnoon","mkt","sasahnoon","jump over"
"nyelan","mkt","nyelan","rest"
"hmwagoon","mkt","hmwagoon","equal"
"xahan","mkt","xahan","loin loin"
"bwatana","mkt","bwatana","sorte d'igname (long, blanc)"
"dudala","mkt","dudala","tree sp"
"bi1","mkt","bi","irrigation ditch"
"wesidedo","mkt","wesidedo","mirror; glass pane"
"thisa","mkt","thisâ","frôler"
"hat","mkt","hat","strong negation"
"thivi","mkt","thivi","enlever (toiture)"
"tingting","mkt","tingting","claquer de la langue pour faire avancer le cheval"
"phaeu","mkt","phâêû","dry land"
"xahnangnyima","mkt","xahnang nyima","joy"
"jicit","mkt","jicit","fish sp"
"kokot","mkt","kokot","blackbird"
"cikanyimancikanyimany","mkt","cika nyiman; cikanyimany","stupid"
"thage1","mkt","thage","plumer"
"bwaabwen","mkt","bwaabwen","morning"
"sapwi","mkt","sapwi","sans graisse (viande)"
"ilake","mkt","ilake","s'il te plaît; demander"
"mwani1","mkt","mwani","crevette noire"
"cahma","mkt","cahma","et puis; TOP"
"pwahna","mkt","pwahna","côté mâle du massif (Leenhardt)"
"uwujaliwala","mkt","*uwujaliwala-","kidney"
"tha2","mkt","tha; the","ASS"
"cami1","mkt","cami","plant"
"haphwe","mkt","haphwê","swear"
"mulip","mkt","mulip","life"
"evai","mkt","evai","weave (leaves)"
"dephaan","mkt","dephâân","appearance"
"jahvai","mkt","jahvai","storchiela (tree)"
"uduun","mkt","udu; un","drink cold"
"vwamaxahnangeomwa","mkt","vwa ma xahnang eo mwa","heal"
"boom","mkt","boom","shadow"
"majaa","mkt","majaa","shark"
"hunxhopwen","mkt","hunxhopwen","thickness"
"sibwat","mkt","sibwat","sauterelle"
"fiji1","mkt","fiji","mèche, huppe"
"bwanxhan","mkt","bwan xhan","dos du pied"
"yawi","mkt","yawi","se gratter"
"thava","mkt","thava","champignon de champ"
"hnit","mkt","hnit","blow nose"
"ke","mkt","-ke","TR"
"eimwikan","mkt","eimwikan","attache sur le balancier, tient la traverse"
"tavathanke","mkt","tavathanke","bloquer dans une emuscade"
"xaahni","mkt","xaahni","raise; stare at; look for"
"gun","mkt","gun","bruit"
"habu","mkt","habu","long ago"
"vai","mkt","vai","faire du filet"
"xhalat1","mkt","xhalat","dirty"
"hnyimake","mkt","hnyimake","faire attention"
"xhwata","mkt","xhwata","bald"
"beabe","mkt","-be; -abe","1PL EXCL POSS"
"wabui","mkt","wabui","digging stick (Leenhardt)"
"buloon","mkt","buloon","umbilical cord"
"gaga","mkt","gaga","amorces végétales pour pêcher le mulet"
"thahmang","mkt","thahmang","giant clam"
"bwahlia","mkt","bwahlia","long; tall"
"lede","mkt","-le; -de","centrifugal"
"vwakoovwakoo","mkt","*vwakoo-; vwakoo","sa lutte"
"vavi","mkt","vavi","hunt"
"xhat","mkt","xhat","clitoris"
"hnyoolanmae","mkt","hnyoolan mae","flame"
"wehaak","mkt","wehaak","fish sp"
"han","mkt","hân","go"
"haava","mkt","haava","invisible"
"vuathake","mkt","vua thake","cast net"
"ibwenkonsep","mkt","ibwen kon sep","coconut bunch"
"koochin","mkt","koochin","fish sp."
"oot","mkt","oot","rope"
"mwadan","mkt","mwadan","wife"
"kaukauk","mkt","kaukauk","crunchy"
"gaaba","mkt","gaaba","aller sans regarder où l'on va"
"fwiu","mkt","fwiu","graying; dirt-coloured"
"phwatu","mkt","phwatu","clam sp"
"thaxaleke","mkt","thaxaleke","see result of progress"
"tuu1","mkt","tuu","maladie des taros"
"xaxayaan","mkt","xaxayaan","brothers in law"
"meenaan","mkt","meenaan","birth custom"
"cucanim","mkt","cucanim","stand hiding"
"kwaumimi","mkt","kwau; mimi","cat"
"nyacin","mkt","nyacin","baby animal"
"jancootjaasoonjaachoon","mkt","jan côôt; jaa sôôn; jaa chôôn","banana spine; banana tree part"
"bwae","mkt","bwae","fishing eagle"
"vunvun","mkt","vun; vun","bleu, vert; bleu (ecchymose, blessure)"
"nyauatemaan","mkt","nyau atemaan","ugly"
"bwaahma","mkt","bwaahma","birth"
"xhehnyat","mkt","xhehnyat","slug"
"mwajike","mkt","mwajike","laugh at"
"feamefeme","mkt","fêame; fème","pumice"
"hmapen","mkt","hmapen","flesh; muscle; few"
"saavisavi","mkt","saavi; savi","visit"
"thabali","mkt","thabali","nail"
"khuda","mkt","khûda","stinky; repulsive"
"vwoonan","mkt","vwoonan","uterine uncle"
"bo","mkt","bo","FUT; IRR"
"weaak","mkt","weaak","coquillage de sable"
"viilevile","mkt","viile; vile","dodge; éviter, sortir du chemin de qqc"
"dipithifwaan","mkt","dipi thifwaan","penile sheath"
"deema","mkt","deema","cigale jaune"
"vithitivaake","mkt","vi thitivaake","parler en cachette"
"hupwa","mkt","hupwa","go down again"
"xhet","mkt","xhet","hot; burn"
"cibwadake","mkt","cibwadake","crumpled"
"hup","mkt","hup","polishing grass"
"theu","mkt","theu","chavirer, basculer"
"ta","mkt","ta-","sitting"
"kubwit","mkt","kubwit","yam sp"
"hnyawa","mkt","hnyawa","tree sp"
"hnyimake1","mkt","hnyimake","think"
"thupila","mkt","thupila","corpse; devil"
"sen","mkt","sen","ciguatera; suffer from ciguatera"
"tua","mkt","tua","detach"
"canxhoogo","mkt","can xhoogo","at home"
"xete","mkt","xete","basket"
"bikin","mkt","bikin","bunch of vines "
"cako","mkt","cako","monkey"
"yavut","mkt","yavut","nom de plante"
"diilan","mkt","diilan","support, étai"
"thipianke","mkt","thipianke","retourner (panier, vêtement)"
"faati","mkt","faati","glue; place"
"kutolo","mkt","kutolo","masque"
"we1","mkt","we","glass"
"hmudit","mkt","hmudit","sob"
"thuanthwan","mkt","*thuan; thwan","good"
"japit","mkt","japit","salary; travel food"
"wenyam","mkt","we nyam","eau douce"
"bwala","mkt","bwala","tarodière"
"uban","mkt","uban","écaille"
"thanafe","mkt","thanafe","balance romaine"
"nye","mkt","nye","say goodbye"
"xavebeen","mkt","xavebeen","cousins croisés"
"te1","mkt","te","thé"
"xhwaiu","mkt","xhwaiu","billon d'ignames en forme de croissant"
"tobwan","mkt","tobwan","worse"
"u","mkt","u","forêt"
"saahmuasaahmua","mkt","saahmua; saahmua","banana"
"kapoop","mkt","kapoop","hiccup; burp"
"suka","mkt","suka","sugar cane sp; sucre"
"thaeke","mkt","thaeke","fruitbat nest"
"vai1","mkt","vai","stone"
"mu","mkt","mu","ART DU"
"taemwi","mkt","taemwi","grab"
"moomwa","mkt","moomwa","come back to stay"
"koinan","mkt","koinan","dernier"
"ivu","mkt","ivu","dégonfler"
"thabo1","mkt","thabo","épais; avoir des fourmis"
"thiho","mkt","thiho","limp; sauter à clochepied"
"dahli","mkt","dahli","écarter les feuilles"
"theewan","mkt","thêêwan","sweat"
"pahop","mkt","pahop","remède contre la gratte"
"taadua","mkt","taadua","grief"
"vwau","mkt","vwau","faire l'intéressant"
"thee","mkt","thee","lourd"
"mi","mkt","mi","couché"
"kuruse","mkt","kuruse","croix"
"suhe","mkt","sûhê","jeu de ficelle"
"thapokemapeke","mkt","thapoke mapeke","lever du jour"
"hna","mkt","hna","night heron "
"wiin","mkt","wîîn","strength"
"wamwi","mkt","wamwi","catch with mouth"
"we2","mkt","we","water"
"thap","mkt","thap","bouton sur la langue; langue blanche, chargée (perte de goût), ""muguet""?"
"sikasikaa","mkt","sika; sikaa","cigarette"
"mita","mkt","mita","sugar cane sp"
"ja","mkt","ja","own"
"waageenwaage","mkt","wââgeen; wââge","flank; ribs"
"thafite","mkt","thafite","weigh down"
"xhweteke","mkt","xhweteke","turn partially; interpréter"
"xaledep","mkt","xaledep","slim"
"thuang","mkt","thuang","joke"
"abu","mkt","abu","1.DU EXCL POSS"
"ika","mkt","*ika-","flea"
"pwa","mkt","pwa","in the house"
"maatinik","mkt","maatinik","sorte d'igname à croissance rapide (long, blanc, jaune)"
"nyivwan","mkt","nyivwan","mouth; entry; blade edge"
"bahla","mkt","bahla","caler un manche"
"xhaya","mkt","xhaya","damage"
"vapula","mkt","vapula","motivated; proper"
"java","mkt","java","flood"
"thilowec","mkt","thilowec","tree sp"
"booda","mkt","booda","mushroom sp"
"vaci","mkt","vaci","partie dure, importante de quelque chose; tubercule; mâchoire"
"tagee","mkt","tagee","thatch roof"
"vwatipwe","mkt","vwa tipwe","drop"
"fwan","mkt","fwan","hole"
"donyivwa","mkt","*do nyivwa-","lip"
"thivu","mkt","thivu","separate"
"vinxhan","mkt","vin xhan","foot nail; griffe"
"ae","mkt","a; e","REL"
"nyanya","mkt","nyanya","mum"
"pepuu","mkt","pepuu","yam granary"
"xathole","mkt","xathole","grive"
"duunvwuuxhan","mkt","duun vwuuxhan","tailbone"
"kahlapakarapa","mkt","kahlapa; karapa","canoe with platform"
"khu","mkt","khû","hum; roar (thunder)"
"geenyoon","mkt","gee nyoon","voice"
"ima","mkt","ima","urinate"
"fatekefate","mkt","fateke; fate","share"
"bup","mkt","bup","explosion"
"fuuma","mkt","fuuma","coconut sprout"
"siiwasivwa","mkt","siiwa; sivwa","faire demi-tour; return"
"fwai","mkt","fwai","chew"
"bin","mkt","bin","dur (noeud); firm; coincé"
"xheela1","mkt","xheela","ramper avec jambes"
"ethalo","mkt","ethalo","in pairs"
"cii","mkt","cii","disappear"
"cuvaaya","mkt","cuvaaya","rickety"
"ecaca","mkt","eca; ca","some"
"iso","mkt","isô","coquillage"
"dodaba","mkt","dodaba","flood garbage"
"tute","mkt","tute","seer"
"fwafwa","mkt","fwafwa","holed"
"thait","mkt","thait","spade"
"javu","mkt","javu","filth"
"yomwaga","mkt","yomwaga","tickle"
"bwaduk","mkt","bwaduk","se prosterner"
"pa","mkt","pa","already"
"tetep","mkt","tetep","mince, transparent"
"vatanvataan","mkt","vatan; vataan","each; each"
"jaatinjatin","mkt","jaatin; jatin","younger brother"
"thibeen","mkt","thibeen","fishhook barb"
"ruta","mkt","ruta","fish sp"
"vathanke","mkt","vathânke","dam; surround; prevent"
"sagit","mkt","sagit","brain"
"ke1","mkt","ke","aha"
"ihnyo","mkt","ihnyo","mourning lifting meal"
"jabo","mkt","jabo","panier à nattes"
"xhubi","mkt","xhubi","crunch; éplucher un coco (crabe cocotier)"
"xhwat","mkt","xhwat","almost"
"u1","mkt","*u-","juicy food"
"khavaang","mkt","khavaang","mangrove crab"
"khukhu","mkt","khûkhû","deafmute"
"haange","mkt","hâânge","do surgery"
"cicoolai","mkt","cicoolai","carry under arm"
"nyakoonyako","mkt","nyakoo; nyako","for"
"khekhe","mkt","khêkhê","parrot"
"walan","mkt","walan","groin"
"sinan","mkt","sinan","sign; notch"
"uhu","mkt","ûhû","no"
"bati","mkt","bati","stick"
"difaadikan","mkt","difaadikan","echo"
"bupan","mkt","bupan","explosion noise"
"jiim","mkt","jiim","crab sp"
"tho","mkt","tho","call; call"
"cuxhayu","mkt","cuxhayu","unusual"
"vatitaluun","mkt","vatitaluun; titalu","hang up; hang up"
"vin1","mkt","vin","terrass"
"thabovi1","mkt","thabovi","baby wrap; shroud"
"Bwaxat","mkt","Bwaxat","Bwarhat"
"fwanta","mkt","fwan tâ","dig oven"
"ciimo","mkt","ciimo","respect"
"yidan","mkt","yidan","alignment; generation"
"goon","mkt","goon","col"
"salekasalekan","mkt","*saleka-; *salekan","possession; pénis (poli)"
"thili","mkt","thili","disparaître dans le sable"
"cala","mkt","cala","healer's payment"
"goo","mkt","goo","enough"
"dee","mkt","dee","red eel"
"niiniieo","mkt","nii; nii-eo","mettre qqn"
"sahmwake","mkt","sahmwake","be the wrong way"
"cian","mkt","cian","absent"
"maan","mkt","maan","face; point"
"hmwaana","mkt","hmwaana","thus"
"daman","mkt","daman","main de banane (Leenhardt)"
"hnyo","mkt","hnyo","land"
"chootcotcoot","mkt","chôôt; côt; côôt","objets de coutume; product"
"xavwauxavwau","mkt","xa vwau; xavwau","knowitall; womanizer"
"buna","mkt","buna","steal"
"sahnaang","mkt","sahnaang","ne pas comprendre"
"fwaneut","mkt","fwaneut","Ouen Kout"
"xhothat","mkt","xhothat","saison des plantations"
"siteke1","mkt","siteke","cimetière"
"xethoo","mkt","xethoo","épuisette, filet à crevettes; utiliser une épuisette"
"dobido","mkt","dobido","mangrove eel"
"mae1","mkt","mae","reed sp; reed"
"kumwala","mkt","kumwala","sweet potato"
"kaacii","mkt","kaacii","turn"
"ethadala","mkt","ethadala","fruit rod"
"goon1","mkt","goon","body; size"
"via","mkt","via","giant taro"
"thawadi","mkt","thawadi","strongly peel"
"nyamaekoon","mkt","nya mae koon","éclairer"
"thibenithiben","mkt","thiben; ithiben","fishing hook nick"
"yatobanpidan","mkt","yatoban; pidan","se retrouver"
"pitheekephitheekephitheke","mkt","pitheeke; phitheeke; phitheke","push away; push someone"
"nyamwi","mkt","nyamwi","bitter"
"cuuvilihmapeaman","mkt","cuu vi li hmape aman","piquer de la viande (faire des brochettes)"
"siti","mkt","siti","grate"
"xahnaman","mkt","xahnaman","glory of the setting sun"
"kiilo","mkt","kiilo","biche de mer"
"cini","mkt","cini","light fire; grill"
"bwaxhu","mkt","bwaxhu","hat"
"saai","mkt","saai","couper (viande)"
"xhwii","mkt","xhwii","fourmillement"
"bwannyamaanbwanyamam","mkt","bwan nyamaan; bwanyamam","arcade sourcilière; sourcil"
"xhan","mkt","xhan","poteau"
"vila","mkt","vila","dance"
"sam","mkt","sam","constipated"
"nimvwasiteke","mkt","nim vwasiteke","mardi"
"theenhantheenhan","mkt","thêên hân; thêên han","roll; go fast; be chased"
"ape","mkt","ape-","LOC.NMLZR"
"xhavit","mkt","xhavit","tuteur"
"caabite","mkt","caabite","harvest"
"xhwalixhwali","mkt","xhwali; xhwali","spear"
"jahma","mkt","jahma","archive; legend"
"xahlavwen","mkt","xahlavwen","grasshopper"
"xhwago","mkt","xhwago","flute reed; music"
"cecahma","mkt","ce; cahma","leave behind"
"fwanmwa","mkt","fwan mwa","ground"
"vuuxhan","mkt","vuu xhan","cuisses"
"xaawa","mkt","xaawa","tree fern"
"hnyai","mkt","hnyai","serré (trop petit)"
"vin2","mkt","vin","nail"
"bol","mkt","bol","balle de cricket"
"thai","mkt","thai","ramasser; enrouler qqc"
"hagu","mkt","hagu","snake"
"pwiwe","mkt","pwiwe","lieu-dit (Ouanache)"
"tehnang","mkt","tehnang","blade edge"
"sen1","mkt","sen","poison; immangable"
"xhwabwe","mkt","xhwabwe","harvest dryup"
"phwephwe","mkt","phwê; phwê","moon"
"thethathe","mkt","the-; tha; the","a little bit"
"mwa","mkt","mwa","DEIX"
"vwadi","mkt","vwadi","éplucher à la main"
"xhali","mkt","xhali","rip"
"abu1","mkt","abu=","1DU EXCL"
"suusi","mkt","suu si","broken arm"
"yamaan","mkt","yamaan","not want"
"xawe","mkt","xawe","jeune; femme (mot coutumier)"
"waatia","mkt","waatia","insist"
"vwekavwe","mkt","-vwe; -kavwe","2PL POSS"
"thave","mkt","thave","arracher des feuilles; décortiquer"
"ye","mkt","ye; yee","wood"
"bwaakalavwahneppwanbwaakalamaidnepwan","mkt","bwaa kala vwa hnep pwan; bwaa kala mai dnep wan","sailboat"
"phwaat","mkt","phwaat","clean; clear, dégagé"
"coolacoolanfebala","mkt","*coola-; *coolan; *febala","responsibility; contribution"
"fae","mkt","fae","buoy"
"evwathuan","mkt","evwathuan","reconcile"
"vwatauvwatau","mkt","vwa tau; vwa tau","fish"
"vwakhet","mkt","vwa khêt","se raser"
"se","mkt","se","1; other"
"xhoothanxhootham","mkt","xhoothan; xhootham","guts"
"tethip","mkt","tethip","drag leg"
"bauvu","mkt","bauvu","sorte de poisson de rivière"
"hyabac","mkt","hyabac","lattes qui retiennent les peaux de niaouli sur le mur"
"sakat","mkt","sakat","sparterie de sagaie"
"hmwata","mkt","hmwata","tuber cake"
"xhaom","mkt","xhaom","light"
"civa","mkt","civa","bandage"
"hyoong","mkt","hyoong","beach crab"
"juumwaJumwajuumwa","mkt","juu mwa; Ju mwa; juu mwa","kanak house"
"hauva","mkt","hauva","cérémonie de deuil"
"thamo","mkt","thamo","woman"
"tekeo","mkt","teke o","percussion bamboo"
"kausu","mkt","kausu","airchamber; slingshot"
"sa","mkt","sa","bait"
"sigo","mkt","sigo","fall (accident)"
"tu","mkt","tu","plant illness"
"vaahit","mkt","vaahit","lizard"
"saahmat","mkt","saahmat","fog"
"cipaacipa","mkt","cipaa; cipa","NEG"
"go2","mkt","go","2.SG.POSS"
"segat","mkt","segat","pleurnicher"
"xhanyip","mkt","xhanyip","dream"
"xhwai","mkt","xhwâi","dancing pole; pilou de guerre"
"nievit","mkt","nievit","how much"
"vo","mkt","vo","fill"
"helo","mkt","helo","taro sauvage (feuilles comestibles, tubercule non)"
"evaaya","mkt","evaaya","shaking"
"thapoke","mkt","thapoke","begin"
"nyuup","mkt","nyuup","pure; dark"
"yayanya","mkt","*ya-; *yan; *ya","starchy food"
"tacuut","mkt","tacuut","crouch; perch"
"dube","mkt","dube","deer"
"nyoonnyoo","mkt","nyoon; nyoo","throat"
"hmwathangihmoathang","mkt","hmwathang; ihmoathang","plant name"
"jim","mkt","jim","mangrove crab"
"nyalan","mkt","nyalan","remains"
"wangbalano","mkt","wâng balan o","bamboo raft"
"seeme","mkt","seeme","all"
"taap","mkt","taap","table"
"sohmween","mkt","sohmween","seesaw"
"xhwe","mkt","xhwe","twisted"
"mat","mkt","mat","dry"
"iila","mkt","iila","pot"
"jeenan","mkt","jeenan","ear"
"thabo2","mkt","thabo","endormi (jambe, pied)"
"wecannyamaam","mkt","we can nyamaam","tear"
"wethaavo","mkt","we thaavo","sauce"
"ka1","mkt","ka","SUBJ"
"meegen","mkt","meegen","poisson de mangrove"
"hnida","mkt","hnida","dandruff"
"xhwahmen","mkt","xhwahmen","fruit vert"
"e","mkt","e=","1SG"
"ucinucinda","mkt","ucin; ucin da","handle (spear); sugar cane cutting"
"soteet","mkt","soteet","slack"
"mween1","mkt","mween","bloom"
"dataan","mkt","dataan","niveau"
"nya","mkt","nya-","towards; de"
"thu","mkt","thu","banyan; tapa"
"bwang","mkt","bwang","maigre; paralysé, crispé"
"jayo","mkt","jayo","arbre anti-moustique"
"tawe","mkt","tawe","moan"
"xhahma","mkt","xhahma","sea urchin"
"fideke1","mkt","fideke","fold"
"tevila","mkt","tevila","trot; swing hips walking"
"wany","mkt","wany","taboo punishment"
"tadake","mkt","tadake","surprise; jump up"
"ka2","mkt","ka","placeholder"
"fum","mkt","fum","nom d'arbre"
"teepifedat","mkt","teep i fedat","bleed"
"wabataan","mkt","wabataan","south wind; light wind"
"jelanjati","mkt","jelan jati","seaside"
"thaapwi","mkt","thaapwi","make rope by turning"
"ipoop","mkt","ipoop","fish sp"
"xaweke","mkt","xaweke","choleric"
"gase","mkt","gase=","1PL INCL"
"bwansanan","mkt","bwan sanan","penis"
"mamaan","mkt","mamaan","peninsula; cape"
"mixhoxhwe","mkt","mixhoxhwe","dormir tard, ne pas se réveiller à temps"
"xathingi","mkt","xathingi","bâtons à glu (piège) (Leenhardt)"
"un","mkt","un","vallée; fond"
"tatu","mkt","tatu","do quickly"
"vahive","mkt","vahive","serpentine"
"jumwanidaama","mkt","ju mwan i daama","chief's house"
"fato","mkt","fato","boire qqc de chaud"
"xatheenkonxha","mkt","xa thêên kon xha","runner"
"yatan","mkt","yatan","name"
"susut","mkt","susut","chouchoute"
"beenthamo","mkt","been thamo","sister"
"siso","mkt","sisô","scissors"
"bwaan","mkt","bwaan","if only"
"atemaa","mkt","*atemaa-","face; proue (de bateau)"
"gu","mkt","gu","yam mound"
"koin","mkt","koin","stop; ASP"
"nyasipoke1","mkt","nyasipoke","mix"
"fwaadanfwadaan","mkt","fwaadan; fwadaan","road"
"taa","mkt","*taa","faire de haut en bas"
"bweenphwe","mkt","bween phwê","the date and the month"
"vwii","mkt","vwii","cheveux blancs; blond"
"wahlom","mkt","wahlom","furuncle"
"pidankepidan","mkt","pidanke; pidan","separate"
"nyam","mkt","nyam","briny; sweet (water)"
"esamsam","mkt","esam; sam","help"
"nyasi","mkt","nyasi","give; concerning"
"xhwat1","mkt","xhwat","just a bit"
"hmwaangin","mkt","hmwaangin","sour"
"uci","mkt","uci","plant de taro"
"xhwaawe","mkt","xhwaawe","child"
"ciim","mkt","ciim","grow (plant)"
"jahngajaahnganjahngan","mkt","*jahnga; *jaahngan; *jahngan","length; all X long"
"bae","mkt","bae","bag"
"vaa1","mkt","vaa","much; fortement"
"kiicake","mkt","kiicake","abuser de la confiance"
"nyala","mkt","nyala","PROX; put there"
"jaalaa","mkt","jaalaa","lanternfish"
"hmwaup","mkt","hmwaup","wind hose"
"thili1","mkt","thili","effacer"
"fwade","mkt","fwade","look for ANIM"
"thafabeen","mkt","thafabeen","be close"
"thafwanke","mkt","thafwanke","carry"
"yeepwen","mkt","yeepwen","log"
"yajen","mkt","yajen","tremble"
"ethienan","mkt","ethienan","third"
"vajilubwanim","mkt","vajilu bwa nim","15"
"hom","mkt","hom","mute"
"cicii","mkt","cicii","essorer"
"thagati","mkt","thagati","sore"
"cutehoot","mkt","cutehoot","tiring"
"cuuvi","mkt","cuuvi","put on string; kebab"
"uta","mkt","uta","rain"
"madubwanmadubu","mkt","madubwan; madubu","tree sp"
"xhim","mkt","xhim","cold"
"caagati","mkt","caagati","crush"
"me1","mkt","-me","DIR speaker"
"thala","mkt","thala","knife; flat oyster"
"thalake","mkt","thalake","couper au couteau, avec une lame"
"hman","mkt","hman","also"
"tutut","mkt","tutut","datura"
"nyimwake","mkt","nyimwake","deep"
"thaabween","mkt","thaabween","turn in circle"
"thaloot","mkt","thaloot","appear; stick out"
"doop","mkt","doop","soil; brown"
"sinusinu","mkt","sinu; sinu","ill; dead (euph.)"
"khoot","mkt","khôôt","poisson de rivière"
"n1","mkt","-n","NSPEC"
"pwahnyi","mkt","pwahnyi","nom propre"
"bune","mkt","bune","steal sth"
"sibo","mkt","sibo","fall from high"
"kacawakacavwa","mkt","kacawa; kacavwa","sorte d'igname (long, rouge)"
"tucim","mkt","tucim","dolphin"
"canbwencabwen","mkt","canbwen; cabwen","yesterday"
"xaebeen","mkt","xaebeen","cousin"
"ha1","mkt","ha","TOP when repetition"
"thabuuke","mkt","thabuuke","destroy"
"ko","mkt","ko","mimosa"
"hanfalogavi","mkt","hân falogavi","walk across"
"pathabua","mkt","pathabua","before"
"wii","mkt","wii","non-laboured field"
"thanyuun","mkt","thanyuun","bloquer par un obstacle"
"xalokoonxalokoonxalo","mkt","xalo koon ; xalo koon; xalo","gaze"
"pwiithit","mkt","pwiithit","parrot"
"tupiike","mkt","tupiike","stir liquid"
"faphake","mkt","faphâke","believe"
"manke","mkt","manke","smoke (food); cook in earth oven"
"pik","mkt","pik","rail"
"thaangan","mkt","thaangan","tentacle"
"hnyana","mkt","hnyana","breathe; breathless; hurt"
"sapwetipwa","mkt","sapwe tipwa","tomber tout seul"
"thaati","mkt","thaati","comb"
"thabiloke","mkt","thabiloke","kill"
"sano","mkt","sano","liane grise"
"esiiwa","mkt","esiiwa","donner en retour"
"epidanpidan","mkt","epidan; pidan","se séparer"
"jivu","mkt","*jivu-","straw skirt"
"jibun","mkt","jibun","grandfather"
"vabun","mkt","vabun","grandchild"
"vunhmwakaidoonye","mkt","vun hmwaka i doon ye","green"
"futheeke","mkt","futheeke","déborder (marmite)"
"hmuun","mkt","hmuun","dust"
"apegu","mkt","ape gu","tertre, ruine sacrée de maison; emplacement de bâton sacré (devant la case)"
"jelan1","mkt","jelan","next to"
"uwathan","mkt","uwathan","gut"
"fuu","mkt","fuu","wash; arroser"
"gun1","mkt","gun","thunder strike"
"deeke","mkt","deeke","rembobiner"
"babe","mkt","babe","fence"
"xabetha","mkt","xabetha","les soeurs, les cousines"
"xakoop","mkt","xakoop","wild"
"phuake","mkt","phuake","wiggle"
"vitibwaladicibwala","mkt","vitibwala; dicibwala","soutènement d'ûne tarodière"
"tehan","mkt","tehan","go between"
"ibwen","mkt","ibwen","squid; yam sort"
"fwandin","mkt","fwandin","nose"
"bening","mkt","bening","bec de cane (poisson)"
"vai2","mkt","vai","braid"
"ja1","mkt","ja","ACOMP"
"thibia","mkt","thibia","petit coquillage de bord de mer"
"thilihmwet","mkt","thilihmwet","firmly"
"juujuu","mkt","juu; juu","True; very"
"wadan","mkt","wadan","moment in time"
"seduut","mkt","seduut","poteau central"
"sai","mkt","sai","torch"
"xafuna","mkt","xafuna","middle finger"
"ecaaecaa","mkt","ecaa; ecaa","learn"
"anan","mkt","anan","vagina"
"mwasiidomwalido","mkt","mwasiido; mwalido","big ant"
"bwaakalabwakala","mkt","bwaa kala; bwakala","canoe"
"vaan","mkt","vaan","thigh"
"bipilan","mkt","bipilan","aile de roussette"
"imwi","mkt","imwi","catch"
"cakebwan","mkt","cakebwan","de l'autre côté"
"jiianjian","mkt","jiian; jian","belly"
"pala","mkt","pala","talk; speech"
"fic","mkt","fic","tree sp"
"yejigo","mkt","ye jigo","mangrove tree"
"hmangmaxhet","mkt","hmang ma xhet","laisser brûler"
"da","mkt","da","plain"
"tena","mkt","tena","hear; feel; understand"
"thiin","mkt","thiin","close; plug; dam current"
"maavu","mkt","maavu","close eyes"
"poon","mkt","poon","coconut fiber"
"tacanim","mkt","tacanim","assis caché"
"xhiit","mkt","xhiit","painful"
"vaaya","mkt","vaaya","work"
"vayoon","mkt","vayoon","mountain summit line"
"keela","mkt","keela","K"
"hmacan","mkt","hmacan","jusqu'à"
"yeexat","mkt","yee xat","aglaé"
"xabate","mkt","xabate","cousin; brothers"
"mocapmaocap","mkt","mocap; maocap","biens du défunt revenant aux tontons"
"hila","mkt","hila","coquillage pour raper le coco"
"m","mkt","-m","2SG.POSS"
"nya1","mkt","nya","put; spread"
"nyaan","mkt","nyaan","send"
"thauli","mkt","thauli","float in wind"
"depwan","mkt","depwan","dépouille de la mue"
"peipa","mkt","peipa","papier"
"jaan","mkt","jaan","vine"
"thugo1","mkt","thugo","feuille protégeant la grappe du cocotier"
"fafatifa","mkt","fa fati; fa","speak language"
"hmedo","mkt","hmedo","spoilt"
"wanit","mkt","wânit","tree sp"
"dini","mkt","dini","rosée"
"vino","mkt","vino","talisman"
"mwansohmun","mkt","mwan sohmun","school building"
"juba","mkt","juba","fish sp"
"maeu","mkt","maeu","dry"
"siva","mkt","siva","tie down"
"nigai","mkt","nigai","nom propre"
"xhipwi","mkt","xhipwi","scratch; scratch with nail"
"hmaceen","mkt","hmaceen","listen"
"boosubosu","mkt","boosu; bosu","hello"
"jiido","mkt","jiido","straw needle"
"jelep","mkt","jelep","magic protection"
"theenthe","mkt","thêên; thê","run"
"esuni","mkt","esuni","suffer"
"fwanje","mkt","fwan je","trap knot"
"savato","mkt","savato","saturday"
"palapalapalan","mkt","*pala-; pala; palan","home; tout près"
"thilan","mkt","thilan","plumet de fronde"
"ofwe","mkt","ofwe","flute"
"kapila","mkt","kapila","water eddy"
"nyanxhoogo","mkt","nyan xhoogo","central allee"
"viyo","mkt","viyo","prepare soil for culture"
"yaan","mkt","yaan","strand"
"kahurecin","mkt","kahurecin","glowworm"
"vinsin","mkt","vin sin","ongle (de main)"
"hnyameke","mkt","hnyameke","swallow"
"dahmwet","mkt","dahmwet","widower; celui qui prend la veuve de son frère (arch.)"
"depatuut","mkt","depatuut","vent du nord-est"
"doohaa","mkt","doohââ","curry"
"itin","mkt","itin","marmite de quelque chose"
"thomaja","mkt","thomaja","écho (arch.)"
"tii","mkt","tii","livre, cahier"
"yo","mkt","yo","1SG"
"nyoot","mkt","nyoot","awaken"
"xahaap","mkt","xahaap","moutarde de mer"
"dap","mkt","dap","grey; ash; sugar cane sp"
"xheu","mkt","xheu","let burn by neglect; overcooked"
"mithiisin","mkt","mithiisin","allongé accoudé"
"xaje","mkt","xaje","manger qqc de juteux"
"thit","mkt","thit","grow green again; bourgeonner, se ramifier"
"tihle","mkt","tihle","se noyer"
"vee","mkt","vee","avoir des rapports extramaritaux"
"mwanmae","mkt","mwan mae","match"
"daahma","mkt","daahma","chef"
"koon","mkt","koon","PROG"
"vwasiiman","mkt","vwa siiman","make noise; make noise"
"xha","mkt","*xha","leg"
"calap","mkt","calap","run away"
"hluupwihluuvi","mkt","hluupwi; hluuvi","aspirate"
"sohmun","mkt","sohmun; somun","studies"
"nata","mkt","nata","pastor"
"pasae","mkt","pasae","placename"
"si","mkt","si","BENEF"
"thauli1","mkt","thauli","s'éventer"
"eholeekenyasim","mkt","e holeeke nyasim","je te remercie"
"pwitan","mkt","pwitan","pénis (grossier)"
"iiman","mkt","iiman","atmosphère d'un endroit tabou, fait peur"
"vidap","mkt","vidap","building ruin"
"ko1","mkt","ko","because"
"mwaa","mkt","*mwaa-","daughter-in-law"
"ma1","mkt","ma","but; si"
"yat","mkt","yat","nom"
"waan","mkt","waan","root"
"ba","mkt","ba","sardine"
"celan","mkt","celan","next to"
"tabe","mkt","tabe","lift"
"pwanvai","mkt","pwanvai","placename"
"xaaeop","mkt","xaaeop","mangrove hermit crab"
"jijit","mkt","jijit","fish sp"
"juuju","mkt","juu; ju","droit"
"thapitheeke","mkt","thapitheeke","emporté par le vent; lancer en tapant"
"tio","mkt","tio","torn"
"nyamwii","mkt","nyamwii","presser dans le poing, froisser, écraser dans la main, presser le sein"
"haaga","mkt","haaga","?"
"siiman","mkt","siiman","deaf; annoying noise"
"tapang","mkt","tapang","tobacco"
"thoohlic","mkt","thoohlic","shell sp"
"e1","mkt","e-","NMLZR.INST"
"jaatanjatan","mkt","jaatan; jatan","sacred perch"
"iluuke","mkt","iluuke","stir; moudre"
"bwansinMbwansim","mkt","bwan sin; Mbwan sim","dos de la main"
"xaamaci","mkt","xaamaci","father and child"
"laluen","mkt","laluen","aloe"
"phwaa","mkt","phwââ","franc"
"miyanot","mkt","miyanot","lightning"
"gana","mkt","*gana-","colour"
"kona","mkt","kona","so; and then; because"
"xeebatfootonga","mkt","xeebatfootonga","panier à porter sur le dos"
"maatana","mkt","maatana","flower sp"
"that1","mkt","that","pandanus"
"vulen","mkt","vulen","stinkbug"
"thakeekethakeea","mkt","thakeeke; thakeea","stretch; tighten; lie down"
"watoke","mkt","watoke","deny"
"gasu","mkt","gasu","1DU.INCL.POSS"
"buli1","mkt","buli","esquiver, parer un coup"
"heve","mkt","heve","où (avec mouvement)"
"vwage","mkt","vwage","crab"
"bwankawan","mkt","bwan kawan","menton"
"cop","mkt","cop","passer par-dessus (crête); passer par dessus (horizon); surpassing expectations"
"hnyaan","mkt","hnyaan","just in front"
"ufi","mkt","ufi","bird sp."
"fahaabut","mkt","fahaabut","tree sp."
"thaapthaap","mkt","thaap; thaap","nyaouli"
"habee","mkt","*habee","armpit"
"vaadan","mkt","vaadan","apologise"
"thakeeke","mkt","thakeeke","stiff"
"pujoom","mkt","pujoom","lieu-dit (Ouanache)"
"fuli","mkt","fuli","mangrove crab"
"xhaapwesaahmwa","mkt","xhaapwe saahmwâ","main de bananes"
"teeke","mkt","teeke","throw pointy"
"welo","mkt","welo","crazy; drunk"
"ecop","mkt","ecop","dépasser qqn"
"ca","mkt","ca","some PL"
"mwanidaahma","mkt","mwan i daahma","maison du chef"
"yetabwalu","mkt","ye tabwalu","tree sp"
"thixhwali","mkt","thixhwali","ceuillir des fruits avec une gaule"
"kaeu","mkt","-kaeu","1DU INCL OBJ"
"yaayoyayocana","mkt","yaayo; yayo; cana","fuck"
"thimwethimoe","mkt","thimwe; thimoe","culture en forêt débroussée"
"vwadiilan","mkt","vwa diilan","?"
"eja1","mkt","eja","balance"
"xapike","mkt","xapike","type de natte"
"nyimanyiman","mkt","nyima; nyiman","pensée; voeux; coeur"
"vehnyat","mkt","vehnyat","peau de bananier"
"madip","mkt","madip","speech"
"hmanyan","mkt","hmanyan","chip"
"pwaayu","mkt","pwaayu","mourner"
"thalepwan","mkt","thalepwan","throw away"
"moove","mkt","moove","whence"
"hmwaka","mkt","hmwaka; hmwakan","same"
"faxhetan","mkt","faxhetan","réchauffer"
"xanyapwanan","mkt","xanyapwanan","paternal aunts"
"hma","mkt","hma","arrive"
"faaveke","mkt","faaveke","two-ended"
"evi","mkt","evi","pomme citerne"
"jila","mkt","jila","treasure"
"puaka","mkt","puaka","pig"
"gamel","mkt","gamel","food bowl"
"pwalang","mkt","pwalang","traverse (pour attacher le balancier)"
"micaajii","mkt","micaajii","couché en chien de fusil"
"thaleeke","mkt","thaleeke","slack; abandon"
"la","mkt","la","be here; endroit"
"daabwau","mkt","daabwau","personne qui reste petite; modeste"
"bucitBucilasim","mkt","bucit; Buci la sim","joint"
"vuleen","mkt","vuleen","molar"
"bwanganu","mkt","bwanganu","propre (eau)"
"fiidit","mkt","fiidit","rétrécir (corde mouillée)"
"xhapunan","mkt","*xhapunan","color"
"simiissemiis","mkt","simiis; semiis","shirt"
"hmaaceen","mkt","hmaaceen","listen attentively"
"hmwaanahmwaena","mkt","hmwaana; hmwaena","like that"
"hunmookan","mkt","hunmookan","nature; everything"
"thaviteekethavitheeke","mkt","thaviteeke; thavitheeke","se réunir; réunion"
"hnibuun","mkt","hnibuun","no fire, cold hearth"
"saman1","mkt","saman","jour fixé, date"
"bwaado","mkt","bwaado","martin-pêcheur"
"yaaiyay","mkt","yaai; yay","scier; circoncire"
"pwaayu1","mkt","pwaayu","lieu de réunion des hommes"
"cupi1","mkt","cupi","spread"
"manyan","mkt","manyan","wood cuttings"
"ma2","mkt","ma","a bit"
"sunixhiit","mkt","sunixhiit","souffrance"
"mwajiket","mkt","mwajiket","bow"
"cavijiian","mkt","cavi jiian","il a la diarrhée"
"niehni","mkt","niehni","those"
"gasu1","mkt","gasu=","1DU INCL"
"dipiaman","mkt","dipi aman","bougna"
"e2","mkt","e-","RECIP; REFL"
"xhaxhabwa","mkt","xhaxhabwa","hésitant"
"butu","mkt","butu","sorte d'igname (blanc, jaune)"
"cadeeke","mkt","cadeeke","admire; praise"
"hua","mkt","huâ","carp"
"cawi","mkt","cawi","river shrimp"
"sivu","mkt","sivu","breathe out; blow"
"ba1","mkt","ba","loche (poisson)"
"nawanit","mkt","nawanit","abelmoschus manihot leaves"
"numea","mkt","numea","sorte d'igname (long, blanc, rouge)"
"xhabut","mkt","xhabut","cudgel"
"thethe","mkt","thê; the","roche calcaire; stalagmite, stalagtite"
"tahmangtahmangke","mkt","tahmang; tahmangke","understand"
"khooba","mkt","khôôba","look intrudingly; spy on someone"
"vuumwanidaahma","mkt","vuumwan i daahma","family under a chief"
"theweeke","mkt","theweeke","flip pandanus leaves"
"sabe","mkt","sabe","lift to drink"
"maani1","mkt","maani","nom d'une montagne"
"gila","mkt","gila","salty"
"thua","mkt","thua","clean away bush"
"pwalalu","mkt","pwalalu","rainbow"
"ya1","mkt","ya","3SG"
"beela","mkt","beela","slide on belly"
"nyonsaahmuasaahmua","mkt","nyon saahmua; saahmua","banana bunch"
"sibu","mkt","sibu","swollen"
"koko1","mkt","koko","sorte d'igname (rond, blanc)"
"sibovi","mkt","sibovi","battered"
"okuha","mkt","o kuha","dancing bamboo"
"in","mkt","in","skin"
"vaat","mkt","vaat","defecate; rust"
"uphwang","mkt","uphwâng","irritation de peau (trique, frottement)"
"fwii","mkt","fwii","wake; pull away"
"titi","mkt","titi","wet"
"oot1","mkt","oot","vein; tendon"
"seboon","mkt","seboon","parties de la viande qu'on enlève"
"bwaabwenan","mkt","bwaabwenan","day after"
"uhnep","mkt","uhnep","coconut fibres"
"bweenamankoixhwaawe","mkt","bweenaman ko i xhwaawe","cérémonie coutumière de naissance"
"maphwen","mkt","maphwên","leftovers"
"camaceme","mkt","cama; ceme; came","if; when"
"bwajepbwajep","mkt","bwajep; bwajep","percussion instrument"
"gaaga","mkt","gaa; ga","1.PL.INCL.POSS"
"holou","mkt","holou","goodbye (dual)"
"civwa","mkt","civwa","entry"
"jiluun","mkt","jiluun","coin"
"waam","mkt","wââm","prepare; organiser"
"bwaholee","mkt","bwa holee","bird of prey sp"
"gu1","mkt","gu","safeplace; fugitive; take refuge"
"thabedo","mkt","thabedo","mountain name"
"xaila","mkt","xaila","mendiant"
"xhwiipxhwiip","mkt","xhwiip; xhwiip","type d'arbre de forêt (chewing-gum?)"
"fatat","mkt","fatat","torn (rope); chipped"
"yahlake","mkt","yahlake","rub in hands"
"mumwawa","mkt","mumwawâ","embrasser"
"daang","mkt","daang","banana sp"
"vaathen","mkt","vaathen","entry taboo"
"hnuuda","mkt","hnuuda","go upstream; go south"
"fwantitiike","mkt","fwan titiike","endroit humide"
"yataan","mkt","yataan","palm"
"u2","mkt","*u-","nourriture juteuse"
"mapusapone","mkt","mapu sapone","guêpe jaune"
"palagat","mkt","pala gat","babble"
"ciiva","mkt","ciiva","guéri"
"pupulekha","mkt","pupulekhâ","poisson-ballon"
"thuatitthoatithoatit","mkt","thuatit; thoati; thoatit","weather; day; sky"
"vwateet","mkt","vwa teet","do nothing"
"mu1","mkt","mu","FREQ"
"xhapwatu","mkt","xhapwatu","green onion"
"piphan","mkt","piphan","pièce (d'outil)"
"saju","mkt","saju","sorte de taro (rouge)"
"vamo","mkt","vamo","nom de fleur, fait sortir le pus; centelle asiatique"
"ilakehaxhi","mkt","ilake haxhi","demander pardon"
"fadavi","mkt","fadavi","surpass"
"vwa","mkt","vwa","do; build"
"fahnofahnon","mkt","fahno; fahnon","group travel"
"maai","mkt","maai","honte; timidité"
"sinuhang","mkt","sinuhang","cozy; warm"
"egoakan","mkt","egoakan","annulaire"
"ohaem","mkt","ohaem","bâiller"
"hnyola","mkt","hnyola","sore muscle"
"cuseada","mkt","cusêada","debout prêt à se battre"
"vacian","mkt","vacian","lose"
"sahmwasaahmwa","mkt","sahmwa; saahmwa","à l'envers"
"sake","mkt","sake","jackfruit"
"mee","mkt","mee","cuit"
"xhaa1","mkt","xhaa","paper mulberry"
"kaavo","mkt","kaavo","nom de fille cadette"
"wangwang","mkt","wâng; wang","boat"
"canim","mkt","canim","se cacher"
"nyainnyai","mkt","nyain; nyai","enfant; enfant du frère (égo masculin)"
"gavwe","mkt","gavwe","2.PL.POSS; 2SG.form"
"fwai1","mkt","fwai","manger des écorces"
"caaji1","mkt","caaji","crescent moon"
"gahum","mkt","gahum","carangue"
"thabuvithabun","mkt","thabuvi; thabun","wrapped"
"thubwaan","mkt","thubwaan","nervure de la foliole de cocotier"
"xahnang","mkt","xahnang","good; beau"
"soda","mkt","soda","soldat"
"sine","mkt","sine","rat (arch.)"
"vacapa","mkt","vacapa","schiste"
"theweeke1","mkt","theweeke","se retourner pour regarder; turn back"
"i2","mkt","i","poux"
"thaahomthahom","mkt","thaahom; thâhom","clear throat"
"tiike","mkt","tiike","écrire"
"caicain","mkt","cai; cain-","behind"
"puudo","mkt","puudo","whale"
"yavato","mkt","yavato","feu de brousse; ignite"
"da1","mkt","da","what"
"thathim","mkt","thathim","frétiller, bouger par terre"
"nyaathan","mkt","nyaathan","être là en face"
"fut","mkt","fut","boiling"
"xhetham","mkt","xhetham","plate"
"ve1","mkt","ve","where immobile"
"hmat","mkt","hmat","monnaie kanak"
"nyaamwi","mkt","nyaamwi","dégeulasse, pas bon à manger"
"nit","mkt","nit","lisse"
"kiica","mkt","kiica","jealous (love)"
"mu2","mkt","mu","little"
"cimooke","mkt","cimooke","respect"
"thave1","mkt","thave","étaler des feuilles"
"kong","mkt","-kong","1.SG.POSS"
"wanaa","mkt","wanaa","argue"
"hunsilaa","mkt","hunsilaa","education"
"caihna","mkt","caihna; caihnan","know"
"thawi","mkt","thawi","wrap; lick"
"bwahliike","mkt","bwahliike","last long"
"vulaa","mkt","vulaa","dirty water; water pollution"
"yahu","mkt","yahu","magnania"
"xaa","mkt","xaa","strike"
"vaaya1","mkt","vaaya","move"
"nyuuke","mkt","nyuuke","fixer, caler, clouer"
"xam","mkt","xam","natte"
"wetangke","mkt","wetangke","rotate on the spot"
"savilixaam","mkt","savi li xaam","déterrer un champ"
"hai1","mkt","hai!","ah! (découverte)"
"kapila1","mkt","kapila","moulin de vent en feuilles de coco; moulin, éolienne"
"hmwaeni","mkt","hmwaeni","like this"
"thagavi","mkt","thagavi","cut"
"thati","mkt","thati","polish; brush; knead dough; fouetter, cingler"
"pwai","mkt","pwai","Poyes (tribe)"
"thaputi","mkt","thaputi","weed"
"kha","mkt","khâ","noise"
"saasee","mkt","saasee","leaning; stagger"
"ko2","mkt","ko","adjacent"
"efadap","mkt","efadap","surpass"
"sagaat","mkt","sagaat","rester au soleil "
"siya","mkt","siya","field"
"xhwaapwexhwaaphwe","mkt","xhwaapwê; xhwaaphwê","pine"
"vanuatu","mkt","vanuatu","sorte d'igname (long, rouge)"
"xa","mkt","xa","tuber seedling"
"vua","mkt","vua","yell"
"jaa","mkt","jaa","too many"
"fava","mkt","fava","4"
"theedo","mkt","thêêdo","Tendo"
"yatu","mkt","yatu","splash"
"vethaitvethaxit","mkt","vethait; vethaxit","yam spade"
"ewago","mkt","ewago","persevere"
"hnaun","mkt","hnaun","snot"
"sagavi","mkt","sagavi","traverser une route; nom de plante"
"phoop","mkt","phoop","snail"
"xathabiloke","mkt","xathabiloke","killer"
"loto","mkt","loto","car"
"guyaap","mkt","guyaap","goyava"
"hoop","mkt","hoop","mattress fern"
"udoo","mkt","*udoo-","cold drink"
"bat","mkt","bat","adult woman"
"dimwa","mkt","dimwa","soa (discorea bullifera)"
"thi","mkt","thi","shell"
"gehaa","mkt","gehaa","worry"
"cuut1","mkt","cuut","stand"
"nanibiket","mkt","nani; biket","goat"
"xhwaaloom","mkt","xhwaaloom","stade de vie, bébé bouge"
"haago1","mkt","haago","be slow"
"phwawanit","mkt","phwâwanit","tree sp"
"hmumwa","mkt","hmumwa","birth"
"nyawiin","mkt","nyawîîn","strain; apply strength"
"hmi","mkt","hmi","uterine uncle"
"domwan","mkt","domwan","balle de jeu"
"bwaany","mkt","bwaany","fibre de cocotier"
"sen2","mkt","sen","unlucky"
"xavwafati","mkt","xavwafati","gossiper"
"ojavwaonjavwa","mkt","o javwa; on javwa","bois de fer"
"cagubwan","mkt","cagubwan","turn vertical axis"
"tana","mkt","tana","red; ripe"
"ding","mkt","ding","bird of prey sp"
"hnean","mkt","hnean","yam field"
"bween","mkt","bween","échange"
"xhwithikoxhwiithi","mkt","xhwithi ko; xhwiithi","avoir le cafard après qqn; be sad; nostalgia"
"thanyuuke","mkt","thanyuuke","stop by hand gesture"
"watuut","mkt","watuut","car"
"etena","mkt","etena","get along"
"dexhwanwethexhwaade","mkt","dexhwanwe; thexhwaade","Tiouandé"
"cacaning","mkt","cacaning","être incertain; ne pas être au courant"
"xheny","mkt","xheny","nom d'oiseau"
"taxhwaaen","mkt","taxhwaaen","try"
"otan","mkt","otan","dancing bracelet; bag handles"
"ehmain","mkt","ehmain","more and more"
"taveentave","mkt","taveen; tave","open"
"kauu","mkt","-kau; --u","2DU.OBJ"
"xhamaan","mkt","xhamaan","piquant (piment)"
"sekansekong","mkt","sekan; sekong","its counterpart"
"gili","mkt","gili","secouer avec la main"
"fijeke","mkt","fijeke","tie knot"
"sananjeenan","mkt","sanan jeenan","earring"
"esunisuni","mkt","esuni; suni","hold back"
"kako","mkt","kako","fourche"
"papa","mkt","papa","dad"
"hmapexha","mkt","*hmape xha-","thigh"
"tho1","mkt","tho","aigrette, plumes dans les cheveux"
"watap","mkt","watap","miss target; be wrong"
"tavacutixhan","mkt","tavacutixhan","assis les jambes repliées devant soi"
"juuapuli","mkt","juu apuli","Kanak"
"hnyanaan","mkt","hnyanaan","breath"
"jali","mkt","jali","sorte de taro (jaune, vert, rouge)"
"thahen","mkt","thahen","s'appuyer"
"mwama","mkt","mwa; ma","REP"
"daman1","mkt","daman","toute la grappe du cocotier"
"ci","mkt","cî","Paicî"
"jiket","mkt","jiket","arrow"
"kumwalacanjati","mkt","kumwala can jati","sea potato"
"fwathan","mkt","fwathan","anus"
"yavec1","mkt","yavec","north wind"
"coopwi","mkt","coopwi","bury; covered sky"
"dipu","mkt","dipu","yam tutor tutor"
"jixhajakejikajake","mkt","jixhajake; jikajake","red mangrove tree"
"sapwen1","mkt","sapwen","dress"
"xaaci","mkt","xaaci","beat; bagarrer; hunt (bird)"
"ciini","mkt","ciini","burn"
"jawan","mkt","jawan","rain cloak"
"nyeet","mkt","nyeet","when"
"se1","mkt","se","cry; couler (cours d'eau)"
"balanvaahit","mkt","balan vaahit","lézard sans queue (bout de lézard); espèce de lézard qu'on trouve sur les caillous"
"eyaye","mkt","eyaye","scie"
"xeenjilajila","mkt","xeen jila; jila","panier sacré"
"thoonatthoohnat","mkt","thoonat; thoohnat","coquillage noir d'eau douce"
"xhaat","mkt","xhaat","paddle"
"waafwap","mkt","waafwap","corbeau"
"tugaat","mkt","tugaat","cold; refroidi (marmite)"
"hmwaeke","mkt","hmwaeke","how"
"kholok","mkt","kholok","tomber tout seul"
"vwa1","mkt","vwa","EXIST"
"hnabo","mkt","hnabo","grieving regalia"
"sasalaam","mkt","sasalaam","avoir les jambes écartées"
"sohmuke","mkt","sohmuke","study"
"da2","mkt","da","in advance"
"sisuu","mkt","sisuu","dur, solide"
"utapwa","mkt","utapwa","enter house"
"cagati","mkt","cagati","fouler"
"fuupan","mkt","fuupan","soot"
"det","mkt","det","bruit des petits caillous, feuilles sèches"
"vua1","mkt","vua","net"
"xhop","mkt","xhop","fougère-aigle"
"jadek","mkt","jadek","nom d'oiseau"
"exandaeke","mkt","exandaeke","bénédiction coutumière"
"xhup","mkt","xhup","herbe à tisane"
"caxhwajen","mkt","caxhwajen","translate"
"kuetu","mkt","kuetu","blanket"
"tinimae","mkt","tin i mae","spark"
"hmee","mkt","hmee","cooked"
"hnyana1","mkt","hnyana","always; stubborn"
"xahanxahan","mkt","xahan; xahân; rahan","over there"
"eaea","mkt","ea; -ea","3SG.POSS"
"nyaanyaa","mkt","nyaanyaa","mère"
"sinsung","mkt","sin; sung","arm; hand"
"neongeong","mkt","neong; eong; -neo","1.SG.POSS"
"jigo","mkt","jigo","mangrove"
"huleke","mkt","huleke; uleke","pour; make flow; topple"
"fwati","mkt","fwati","presser, essorer; serrer, étrangler"
"xhaahlim","mkt","xhaahlim","mat"
"ethiwang","mkt","ethiwâng","perche de navigation"
"fasohmuke","mkt","fasohmuke","teach"
"salaam","mkt","salaam","écarter les jambes"
"kuha","mkt","kuha","blowpipe"
"yapen","mkt","yapen","old"
"mwen","mkt","mwen","owl"
"finetii","mkt","fine tii","read"
"pioot","mkt","pioot","pioche"
"bowen","mkt","bowen","grosse lèvre"
"thii","mkt","thii","piquer; percer; embrocher"
"bwabwaa","mkt","bwa; bwaa","IPFV"
"vadang","mkt","vadang","cabane; étage; plate-forme"
"wati1","mkt","wati","remove embers"
"dinga","mkt","dinga","poteau central"
"cafwii","mkt","cafwii","trouver par hasard"
"siyan","mkt","siyan","older brother"
"faxhaabutvakabut","mkt","faxhaabut; vakabut","salsepareille"
"xhuti","mkt","xhuti","scrunch (sugarcane)"
"san","mkt","san-","content"
"suu","mkt","suu","break by folding"
"xhwata1","mkt","xhwata","continuous"
"hoot","mkt","hoot","far"
"hnyanik","mkt","hnyanik","shell"
"apetabo","mkt","ape tabo","bench"
"pavisi","mkt","pavisi","place name"
"mwaajo","mkt","mwaajo","steam"
"ma3","mkt","ma","SUB"
"fwaan","mkt","fwaan","chewy food"
"vwasukin","mkt","vwa sukin","buy"
"nyit","mkt","nyit","deep"
"thaalap","mkt","thaalap","yam stick"
"xalanthu","mkt","xalan thu","placename"
"gavwe1","mkt","gavwe=","2PL; 2SG"
"hmadao","mkt","hmadao","peau irritée par la brousse"
"hnyit","mkt","hnyit","slip"
"vivii","mkt","vi; vii","say"
"thomwan","mkt","thomwan","spouse; married couple"
"mwanvwasiteke","mkt","mwan vwasiteke","church"
"maama","mkt","maama","older brother; chief"
"fajuujuuke","mkt","fajuujuuke","?"
"thavioke","mkt","thavioke","lever la terre en piochant"
"suati","mkt","suati","polir; brosser"
"inyainyaninyong","mkt","*inya-; inyan; inyong","sa mère"
"uti","mkt","uti","remove from somewhere"
"javwa","mkt","javwa","tree sp"
"joopwi","mkt","joopwi","fill with stones"
"theganpaek","mkt","theganpaek; theganpaik","Téganpaïk"
"cabi","mkt","cabi","smash brittle; frapper un piquet pour l'enfoncer"
"doon","mkt","doon","leaf"
"vidapmwa","mkt","vidap mwâ","endroit habité abandonné"
"juumani","mkt","juu mani","notou"
"fao","mkt","fao","open shelter"
"mwaanganmwangan","mkt","mwaangan; mwangan","taro part"
"balan2","mkt","balan","bit of length; a bit"
"yabwat","mkt","yabwat","dry; drought"
"bac","mkt","bac","mérou"
"kam","mkt","kam","place name"
"vatue","mkt","vatue","pick pandanus"
"gibwat","mkt","gibwat","ceremonial axe"
"soxhaa","mkt","soxhaa","waste"
"nyahmangnyamang","mkt","nyahmang; nyamang","sweet; delicious"
"yavi1","mkt","yavi","pomme kanak"
"futho","mkt","futho","plantain"
"kupet","mkt","kupet","sorte d'igname (long, rouge)"
"hanu","mkt","hanu","photo; drawing"
"xhaxhabwa1","mkt","xhaxhabwa","dangerous"
"saat","mkt","saat","ford river; wade"
"pachigo","mkt","pachigo","lieu-dit où la guerre de 1917 s'est éteinte"
"fedat","mkt","fedat","blood"
"evwakoon","mkt","evwakoon","envious"
"iven","mkt","iven","belle-soeur"
"u3","mkt","-u","2DU.POSS"
"cada","mkt","cada","land"
"jo1","mkt","jo","beetle"
"mateo","mkt","mateo","sorte de taro (rouge)"
"seseansesea","mkt","se-; sêân-; sê-; sêa-","regarder vers qq part"
"uhut","mkt","uhut","disappear into water"
"fwanvwangge","mkt","fwan vwangge","crab hole"
"cahu","mkt","cahu","répondre à un appel"
"bwaam","mkt","bwaam","j'ai de la peine pour toi"
"kamarat","mkt","kamarat","type d'herbe"
"xada","mkt","xada","up there"
"hipoop","mkt","hipoop","lochon de rivière"
"hmapeaman","mkt","hmape aman","meat"
"tabwalutabwaelu","mkt","tabwalu; tabwaelu","low topogr point; valley"
"soom","mkt","soom","swim"
"thiibu","mkt","thiibu","press; massage"
"haloon","mkt","haloon","se marier (femme)"
"thaepwiinthaapwei","mkt","thaepwiin; thaapwei","eat up"
"dawedaawe","mkt","dawe; daawe","west wind; voie lactée; earth breeze"
"fwanfala","mkt","fwan fala","cradle"
"sahngiit","mkt","sahngiit","disgusting; hate"
"jilowec","mkt","jilowec","tree sp"
"bale","mkt","bale","balais; plant sp"
"xhaphwe","mkt","xhaphwê","plant sp"
"xat1","mkt","xat","sun"
"fafado","mkt","fafado","talk to spirits"
"thayahato","mkt","tha ya hato","lui tout seul"
"xabaheela","mkt","xabaheela","be born"
"xaevwonan","mkt","xaevwonan","tonton et neveu/ nièce"
"fine","mkt","fine","count; every"
"seboon1","mkt","seboon","péritoine"
"faat","mkt","faat","glue"
"vije1","mkt","vije","pays Pije; Tipije"
"esidedo","mkt","esidedo","look at reflection in mirror"
"thibup","mkt","thibup","fouet"
"khonooke","mkt","khônooke","observe"
"bibitho","mkt","bibitho","swallow"
"fiit","mkt","fiit","fart"
"mwaxheny","mkt","mwaxheny","lutin, nain guardien"
"ibi","mkt","ibi","pincer avec les doigts; ceuillir des herbes en pincant"
"thinan","mkt","thinan","lid"
"vitheeke","mkt","vitheeke","meet; aiguicher le feu"
"khet1","mkt","khêt","blade; glass shard; quarz"
"hun","mkt","hun-","manner"
"xaphwangan","mkt","xaphwângan","fourchu"
"jepo","mkt","jepo","sculpture; chambranle"
"xhwalom","mkt","xhwalom","retourner"
"cimdoon","mkt","cimdoon","plante grasse à fleurs rouges"
"budu","mkt","budu","slingshot stone pouch"
"yejeeda","mkt","ye jeeda","arbre de badam"
"nyapwan","mkt","nyapwan","enfants du frère (égo féminin)"
"nyamwala","mkt","nyamwala","en ce moment-là"
"mama","mkt","mama","mum"
"ulip","mkt","ulip","countergift"
"pwecava","mkt","pwecava","fièvre"
"ucivu","mkt","ucivu","temps écoulé; disette"
"thivaansin","mkt","thivaan sin","auriculaire"
"ying","mkt","ying","ambush"
"vayavaya","mkt","vayavaya","agiter"
"wealake","mkt","wealake","interroger"
"maxhwa","mkt","maxhwa","mackerel"
"pilia","mkt","pilia","liane dont les graines oranges servent à faire des colliers"
"jiang","mkt","jiang","bird name"
"savi","mkt","savi","déterrer, creuser; peigner"
"xhwanthuang","mkt","xhwanthuang","bientôt"
"mwanvwailamwanvwaila","mkt","mwan vwaila; mwan vwa ila","kitchen"
"xhaapwe","mkt","xhaapwe","fruit classifier"
"kaki","mkt","kaki","marron"
"tena1","mkt","tena","rumeur"
"bobi","mkt","bobi","sorte d'igname (long, blanc)"
"bwanpu","mkt","bwanpu","territoire"
"xaavapan","mkt","xaavapan","frères et soeurs"
"vwun","mkt","vwun","hair"
"pa1","mkt","pa-","speak"
"daweenvwasiteke","mkt","daween vwasiteke","week"
"cap","mkt","cap","hide in hole"
"yeelep","mkt","yeelep","se torcher le derrière en se frottant par terre"
"na","mkt","na","DEM"
"saat1","mkt","saat","tree sp"
"phwe","mkt","phwê","bubble"
"xaiven","mkt","xaiven","sisters-in-law"
"uta1","mkt","uta","saison des récoltes"
"tapwa","mkt","tapwa","entry"
"heeehaha","mkt","hê; êê; hâ; ha","yes"
"ethaut","mkt","ethaut","se bagarrer"
"fwajimwake","mkt","fwajimwake","demander"
"sesaaleke","mkt","sesaaleke","s'approcher silencieusement de qqn"
"tike","mkt","tike","couper pour soigner"
"thauti","mkt","thauti","pull out; bullet shell"
"naen","mkt","naen","today; later"
"jauvang","mkt","jauvang","get lost in bush"
"ecanim","mkt","ecanim","jouer à cache-cache"
"thayalake","mkt","thayalake","spread (coffee, sand)"
"iilo","mkt","iilo","soft"
"toot","mkt","toot","tangled"
"sayaat","mkt","sayaat","lift a tabou"
"siyalinyai","mkt","siya li nyâi-","eldest child"
"naamuunamannaamuunnamun","mkt","naamuun aman; naamuun; namun","habits; goods"
"teet","mkt","teet","chômer"
"mwatho","mkt","mwathô","tas de vivres"
"xhose","mkt","xhose","again"
"phom","mkt","phom","butterfly"
"bowacixha","mkt","*bowaci xha-","heel"
"ewati","mkt","ewati","race"
"sobwaa","mkt","sobwaa","bien fait pour lui!"
"cinimaxet","mkt","cini ma xet","chauffer, brûler pour faire chaud"
"thihe","mkt","thihê","sneeze"
"xhwiamanxhwiaman","mkt","xhwi aman; xhwi aman","eat"
"vwage1","mkt","vwage","derris (poisson)"
"gohupe","mkt","gohupe","clan name"
"koma","mkt","koma","so that"
"vween","mkt","vween","hybrid"
"ta1","mkt","tâ","oven"
"katia","mkt","katia","lépreux"
"ikin","mkt","ikin","chair animale; condiment, partie goûteuse du repas"
"xhosaba","mkt","xhosaba","filot (nom de plante)"
"wadat","mkt","wadat","gun"
"ohnic","mkt","ohnic","chez Pei (nom de lieu)"
"mibwen","mkt","mibwen","early"
"pelap","mkt","pelap","panier rond, burlap; type de natte"
"caa","mkt","caa","make a step; set down foot"
"sovan","mkt","sovan","horse"
"thiba","mkt","thiba","se vautrer"
"ju","mkt","ju","brochette de poissons"
"sadau","mkt","sadau","se chauffer"
"duun","mkt","duun","bone"
"bwun","mkt","bwun","gull"
"xava","mkt","xava","chenille"
"vatu","mkt","vatu","fouiller partout en mettant tout en l'air"
"thit1","mkt","thit","bouquet de paille de danse"
"kuha1","mkt","kuha","bamboo sp"
"mubwan","mkt","mubwan","flesh-eating larva"
"yale","mkt","yale","stone dust"
"hmapethoatithmapethoatit","mkt","hmape thoatit; hmapethoatit","cloud"
"thathaa","mkt","thathaa","herbe courte (utilisée pour les bwanjep)"
"da3","mkt","da","spear; arrow"
"kabe","mkt","-kabe","1 PL EXCL"
"canvije","mkt","canvije","Tipije"
"jo2","mkt","jo","year"
"xhap","mkt","xhap","cracked"
"cakes","mkt","cakes","EXCL"
"en1","mkt","en","fine, beautiful"
"o1","mkt","o","bamboo"
"pwaja","mkt","pwaja","arbre à fruits rouges"
"wehapwen","mkt","wehapwen","plant (taro etc)"
"xho","mkt","xho","brown cicada"
"bitake","mkt","bitake","turn on same level"
"yato","mkt","yato","aiguiser"
"mavulen","mkt","mavulen","bat sp"
"vwasiya","mkt","vwa siya","garden"
"davi","mkt","davi","carve; dig with adze"
"caeke1","mkt","caeke","faith"
"uphan","mkt","uphan","tongue"
"yavo","mkt","yavo","tree sp"
"huupik","mkt","huupik","bird sp"
"sapwencanuta","mkt","sapwen can uta","manteau de pluie"
"vuman","mkt","vuman","group"
"jadoo","mkt","jadoo","uncles' raid"
"yavo1","mkt","yavo","ligne (de pêche)"
"daadin","mkt","daadin","spark"
"falogaviithafodogari","mkt","falogavi; ithafodogari","diagonal; rooftop beam"
"ka3","mkt","ka","FOC?"
"that2","mkt","that","wind"
"bun","mkt","bun","bird sp"
"xhayu","mkt","xhayu","au hasard"
"xeet","mkt","xeet","basket"
"koloot","mkt","koloot","redhaired"
"khubin","mkt","khûbin","sorte d'igname (walei); igname à piquants"
"thafwi","mkt","thafwi","cyclone destruction; dig with pickaxe"
"tafe","mkt","tafe","sit with"
"sii1","mkt","sii","shush"
"nyawa","mkt","nyawa","go badly"
"vauke","mkt","vauke","topple"
"been1","mkt","been","brother; relative same generation"
"tehnang1","mkt","tehnang","dexterous"
"u4","mkt","u","tomber de tout son long, s'abattre"
"uhni","mkt","uhni","passer à la flamme; assouplir au feu"
"nan","mkt","-n; -an","PSM"
"xhutan","mkt","xhutan","chewing foodpart"
"xathoomwan","mkt","xathoomwan","couple"
"cake","mkt","cake","pelleter, écoper, ramasser du sucre/sable"
"kuvet","mkt","kuvet","grosse loche"
"vaa2","mkt","vaa","war"
"vacuti","mkt","vacuti","ériger"
"goakan1","mkt","goakan","longeur physique; middle"
"tupilake","mkt","tupilake","faire tourner la tige de l'igname autour du tuteur; jouer à la toupie"
"cala1","mkt","cala","when"
"ca1","mkt","-ca","this (visible)"
"ko3","mkt","ko","but"
"siim","mkt","siim","gale; yam mushroom"
"gitava","mkt","gitava","kalbash"
"thaboonimaengocamboimoethaboon","mkt","thaboon i mae; ngocambo i moe; thaboon","éteindre le feu"
"apuli","mkt","apuli","human; man"
"vap","mkt","vap","hunt"
"nim","mkt","nim","5"
"cu","mkt","cu-","standing"
"thaekuc","mkt","thaekuc","placename"
"enaxahan","mkt","ena xahan","DIST"
"xahnube","mkt","xahnube","creep"
"teete","mkt","teete","aunty"
"nya2","mkt","nya","give"
"cabwake","mkt","cabwake","look forward to"
"hmwaan","mkt","hmwaan","laugh"
"sapone","mkt","sapone","Japonais"
"xaanxan","mkt","xaan; xan","own field"
"hmweap","mkt","hmweap","nest"
"thapi","mkt","thapi","crush"
"funaake","mkt","funaake","preach; command"
"nyaabu","mkt","nyaabu","mosquito"
"vwen","mkt","vwen","turtle"
"saae","mkt","saae","keep to ripen"
"hmaxat","mkt","hmaxat","cold season"
"coobahli","mkt","coobahli","push off by hand"
"hmunyan","mkt","hmunyan","earth crumbs"
"xhetixat","mkt","xhet i xat","le soleil chauffe"
"cade","mkt","cade","be impressed"
"cuxheela","mkt","cuxheela","on all four"
"jivaa","mkt","jivaa","pill; heal"
"thateeke","mkt","thateeke","abattre"
"thadi","mkt","thadi","take out ember"
"jaavelo","mkt","jaavelo","ricochet"
"xacim","mkt","xacim","nephew"
"dingan","mkt","dingan","creek"
"ong","mkt","-ong; -eo; -ng","1SG.OBJ"
"evwakan","mkt","evwakan","maintain; tool"
"apebuco","mkt","ape buco","public"
"thufeda","mkt","thufeda","dive with spear"
"fatoo","mkt","*fatoo-","hot drink"
"xhiileke","mkt","xhiileke","flog"
"vukiapuli","mkt","vuki apuli","clan"
"e3","mkt","e-","ordinal"
"theneke","mkt","theneke","close"
"jamwan","mkt","jamwan; jamwa","father"
"aman","mkt","aman","thing"
"hapi","mkt","hapi","COMP"
"xahut","mkt","xahut","below"
"can","mkt","can; ca","DEIX"
"xa1","mkt","xa-","NMLZR"
"batebwen","mkt","batebwen; batembwen","evening"
"tamwa","mkt","tamwa","go back up"
"calibeen","mkt","calibeen","sometimes"
"kavi","mkt","kavi","but"
"bwen","mkt","bwen","night; nuit"
"a2","mkt","a","CONJ"
"juura","mkt","juu ra","almost"
"a3","mkt","-a","3SG.OBJ"
"bwan","mkt","bwan","head"
"ka4","mkt","ka-","NMLZR"
"hupwe","mkt","hupwe","go down away"
"thandoop","mkt","than doop","mud"
"libeen","mkt","li been","NSPEC.PL"
"ena","mkt","ena","DEM"
"hame","mkt","hame","come"
"cahni","mkt","cahni","here"
"vukin","mkt","vukin","cause"
"xavwakhan","mkt","xavwakhan","dog"
