"ID","Family_name","Given_name","Year_of_birth","Gender","Comment"
"jr","R.","J.",1994,"M","Some information about the speaker, just to see what it looks like on the web app."
"np","P.","N.",1950,"F","Some information about the speaker, just to see what it looks like on the web app."
"bp","P.","B.",1970,"M","Some information about the speaker, just to see what it looks like on the web app."
