"ID","Description","References"
"e","This is additional information, not present in the FLEx database. Does it show up? Good.","person"
"gasu1",,"person"
"gase",,"person"
"abu1",,"person"
"abe",,"person"
"go1",,"person"
"gau",,"person"
"gavwe1",,"person"
"a",,"person"
"lu",,"person"
"le",,"person"
